Place,Name,BirthYear,Country,BodyweightKg,Bench1Kg,Bench2Kg,Bench3Kg,Best3BenchKg,TotalKg,WeightClassKg,Division,Event,Sex,Equipment,Age
1,Vladimir Balynets,1985,Russia,53.47,165,172,175,175,175,59,Open,B,M,Raw,
2,Abdulkarim Karaman,1994,Kazakhstan,58.71,167.5,-172.5,-175,167.5,167.5,59,Open,B,M,Raw,
3,Yasushi Ogasawara,1972,Japan,56.89,155,160,-167.5,160,160,59,Open,B,M,Raw,
4,Fredrik Eskil Myrvang,1990,Norway,58.05,145,150,155,155,155,59,Open,B,M,Raw,
5,Dariusz Wszoła,1978,Poland,58.76,145,150,152.5,152.5,152.5,59,Open,B,M,Raw,
6,Ihor Harashchenko,1988,Ukraine,58.97,137.5,145,-155,145,145,59,Open,B,M,Raw,
7,Ivan Arnautov,1986,Russia,52.22,140,-145,-150,140,140,59,Open,B,M,Raw,
1,Eddie Berglund,1995,Sweden,65.38,200,-207.5,211,211,211,66,Open,B,M,Raw,
2,Albert Khabibulin,1989,Russia,65.74,175,180,-185,180,180,66,Open,B,M,Raw,
3,Yeldos Yermakhanov,1990,Kazakhstan,65.45,170,175,-180,175,175,66,Open,B,M,Raw,
4,Manuel Virgilio,1974,France,65.65,165,170,-177.5,170,170,66,Open,B,M,Raw,
5,Keita Saito,1982,Japan,65.76,160,167.5,-177.5,167.5,167.5,66,Open,B,M,Raw,
6,Masashi Fukuda,1984,Japan,65.96,152.5,157.5,160,160,160,66,Open,B,M,Raw,
7,Philipp Ziemer,1990,Germany,65.26,-152.5,152.5,-160,152.5,152.5,66,Open,B,M,Raw,
8,Daniel Thomas #2,1985,UK,65.25,140,145,-152.5,145,145,66,Open,B,M,Raw,
1,Daiki Kodama,1979,Japan,73.05,195,202.5,-212.5,202.5,202.5,74,Open,B,M,Raw,
2,Volodymyr Tsaturian,1995,Ukraine,73.68,185,190,195,195,195,74,Open,B,M,Raw,
3,Brandon Maddox #1,1992,USA,73.9,185,190,195,195,195,74,Open,B,M,Raw,
4,Marcin Garbas,1985,Poland,73,185,190,-195,190,190,74,Open,B,M,Raw,
5,Dmitrii Luchkin,1986,Russia,73.29,177.5,182.5,-190,182.5,182.5,74,Open,B,M,Raw,
6,Tuomas Nikkilä,1978,Finland,73.29,167.5,175,-177.5,175,175,74,Open,B,M,Raw,
7,Juergen Kraushofer,1993,Austria,73.61,155,162.5,-170,162.5,162.5,74,Open,B,M,Raw,
8,Loc Nguyen,1989,Canada,72.82,150,157.5,-162.5,157.5,157.5,74,Open,B,M,Raw,
9,Pauli Kouki,1989,Finland,73.34,157.5,-165,-165,157.5,157.5,74,Open,B,M,Raw,
10,Ádám Szívós,1992,Hungary,73.83,150,157.5,-160,157.5,157.5,74,Open,B,M,Raw,
11,Emmanuel Franklin,1984,UK,72.63,145,155,-160,155,155,74,Open,B,M,Raw,
12,Benjamin Haugk,1990,Germany,73.67,145,150,155,155,155,74,Open,B,M,Raw,
13,Danny Potter,1981,UK,73.68,140,147.5,152.5,152.5,152.5,74,Open,B,M,Raw,
1,Yusuke Suzuki,1984,Japan,78.72,200,205,211.5,211.5,211.5,83,Open,B,M,Raw,
2,Vyacheslav Tsoy,1984,Kazakhstan,82.06,205,207.5,-212,207.5,207.5,83,Open,B,M,Raw,
3,Maksim Beloborodov,1983,Russia,82.25,197.5,-202.5,202.5,202.5,202.5,83,Open,B,M,Raw,
4,Loic Bellone,1991,France,82.15,-200,-200,200,200,200,83,Open,B,M,Raw,
5,Orgilbold Galdan,1986,Mongolia,82.36,190,200,-202.5,200,200,83,Open,B,M,Raw,
6,Oleksandr Shliakhta,1979,Ukraine,78.37,190,195,-200,195,195,83,Open,B,M,Raw,
7,Kamil Wojciechowski,1986,Poland,80.1,192.5,-200,-200,192.5,192.5,83,Open,B,M,Raw,
8,Valentyn Malikov,1974,Ukraine,82.53,185,192.5,-202.5,192.5,192.5,83,Open,B,M,Raw,
9,Merdan Nursahedov,1976,Turkmenistan,77.84,190,-195,-195,190,190,83,Open,B,M,Raw,
10,Grzegorz Jazowiecki,1987,Poland,80.37,190,-200,-200,190,190,83,Open,B,M,Raw,
11,Andrew Thompson #4,1988,USA,81.63,182.5,190,-192.5,190,190,83,Open,B,M,Raw,
12,Janne Råman,1989,Finland,82.8,177.5,182.5,185,185,185,83,Open,B,M,Raw,
13,Sergejs Timofejevs,1994,Latvia,77.94,165,172.5,180,180,180,83,Open,B,M,Raw,
14,Masaru Suzuki,1982,Japan,79.19,-180,-180,180,180,180,83,Open,B,M,Raw,
15,Alexandr Supronkov,1987,Kazakhstan,82.07,180,-190,-190,180,180,83,Open,B,M,Raw,
DQ,Levani Giligashvili,1982,Georgia,82.94,-190,-192.5,-192.5,,,83,Open,B,M,Raw,
1,Dennis Cieri,1968,USA,91.82,217.5,222.5,-233.5,222.5,222.5,93,Open,B,M,Raw,
2,Jan Wegiera,1965,Poland,92.85,215,220,-225,220,220,93,Open,B,M,Raw,
3,Marcus Grahn,1990,Sweden,92.3,207.5,-217.5,-220,207.5,207.5,93,Open,B,M,Raw,
4,Risto Joensuu,1988,Finland,92.25,205,-215,-215,205,205,93,Open,B,M,Raw,
5,Dan Watkins #1,,UK,91.46,180,192.5,-195,192.5,192.5,93,Open,B,M,Raw,
6,Baurzhan Mussayev,1986,Kazakhstan,92.89,-185,185,-210,185,185,93,Open,B,M,Raw,
1,Sodnompiljee Enkhbayar,1985,Mongolia,104.2,232.5,237.5,242.5,242.5,242.5,105,Open,B,M,Raw,
2,Sergii Parkhomenko,1988,Ukraine,102.15,-225,230,238,238,238,105,Open,B,M,Raw,
3,Sergei Degtiarev,1992,Russia,103.96,215,227.5,232.5,232.5,232.5,105,Open,B,M,Raw,
4,Aminhossein Naeim,1985,Iran,103.25,210,227.5,-232.5,227.5,227.5,105,Open,B,M,Raw,
5,Josef Eriksson,1992,Sweden,99.05,220,225,-232.5,225,225,105,Open,B,M,Raw,
6,Denis Rybka,1985,Kazakhstan,104.07,225,-230,-232.5,225,225,105,Open,B,M,Raw,
7,Timo Hokkanen,1979,Finland,104.36,217.5,222.5,-230,222.5,222.5,105,Open,B,M,Raw,
8,Dimitriy Li,1991,Kazakhstan,104.75,222.5,-227.5,-232.5,222.5,222.5,105,Open,B,M,Raw,
9,Andreas Henning,1982,Sweden,104.68,210,217.5,-225,217.5,217.5,105,Open,B,M,Raw,
10,Joseph Hardy Jr,1991,USA,101.73,205,207.5,-227.5,207.5,207.5,105,Open,B,M,Raw,
11,Richard Gibson,1980,UK,103.95,170,180,187.5,187.5,187.5,105,Open,B,M,Raw,
1,Amandas Paulauskas,1987,Lithuania,119.04,240,-247.5,247.5,247.5,247.5,120,Open,B,M,Raw,
2,Philippe Billoir,1978,France,118.92,-232.5,232.5,240,240,240,120,Open,B,M,Raw,
3,Māris Juzups,1988,Latvia,119.71,222.5,227.5,-235,227.5,227.5,120,Open,B,M,Raw,
4,Markus Karner,1970,Austria,118.79,-225,225,-235,225,225,120,Open,B,M,Raw,
5,Kostiantyn Yezyk,1991,Ukraine,111.98,215,222.5,-227.5,222.5,222.5,120,Open,B,M,Raw,
6,Simo Sistonen,1983,Finland,119.07,217.5,222.5,-227.5,222.5,222.5,120,Open,B,M,Raw,
7,Alexander Chevokin,1984,Russia,113.6,210,215,-222.5,215,215,120,Open,B,M,Raw,
8,Linas Palivonas,1981,Lithuania,118.72,202.5,-212.5,212.5,212.5,212.5,120,Open,B,M,Raw,
9,Hirokazu Koga,1991,Japan,111.82,210,-220,-222.5,210,210,120,Open,B,M,Raw,
10,Daniel Lindsell,1986,UK,119.67,-192.5,200,205,205,205,120,Open,B,M,Raw,
1,Thomas Davis #1,1992,USA,195.67,280,290,-306,290,290,120+,Open,B,M,Raw,
2,Ove Lehto,1972,Finland,163.23,255,262.5,272.5,272.5,272.5,120+,Open,B,M,Raw,
3,Joel Sundelin,1994,Sweden,136.56,235,242.5,247.5,247.5,247.5,120+,Open,B,M,Raw,
4,Siim Rast,1988,Estonia,182.32,235,-245,-245,235,235,120+,Open,B,M,Raw,
5,Wesley Hall #1,1984,UK,129.85,202.5,210,-215,210,210,120+,Open,B,M,Raw,
6,Dovletnazar Atanazarov,1984,Turkmenistan,142.52,200,205,-207.5,205,205,120+,Open,B,M,Raw,
7,Mathieu Brignall,1992,UK,158.22,205,-212.5,-212.5,205,205,120+,Open,B,M,Raw,26
DD,Jafar Pirniaei,1983,Iran,149.63,-220,,,,,120+,Open,B,M,Raw,
1,Ivan Kuvaldin,2001,Kazakhstan,51.32,90,95,100,100,100,53,Sub-Juniors,B,M,Raw,
2,Anton Kauranen,2003,Finland,50.24,77.5,80,-82.5,80,80,53,Sub-Juniors,B,M,Raw,
3,Tucker Thompson,2003,USA,51.62,60,-67.5,70,70,70,53,Sub-Juniors,B,M,Raw,
1,Jakub Jedrzejewski,2001,Poland,58.55,122.5,127.5,-136,127.5,127.5,59,Sub-Juniors,B,M,Raw,
2,Nurzhan Zhazimov,2000,Kazakhstan,58.47,-120,-120,120,120,120,59,Sub-Juniors,B,M,Raw,
3,Rostyslav Babiuk,2000,Ukraine,58.51,95,100,105,105,105,59,Sub-Juniors,B,M,Raw,
4,Aaro Kallionkieli,2000,Finland,58.8,80,-85,85,85,85,59,Sub-Juniors,B,M,Raw,
1,Natan Balogh,2000,Hungary,65.66,140,145,-165.5,145,145,66,Sub-Juniors,B,M,Raw,
2,Vladislav Morozov,2001,Kazakhstan,64.76,130,-140,-145,130,130,66,Sub-Juniors,B,M,Raw,
3,Wojciech Magiera,2001,Poland,65.67,110,115,-120,115,115,66,Sub-Juniors,B,M,Raw,
4,Daniel Ferreira,2002,Canada,59.87,87.5,95,-102.5,95,95,66,Sub-Juniors,B,M,Raw,
1,Nikita Kabyldinov,2000,Kazakhstan,73.57,-165,165,-170,165,165,74,Sub-Juniors,B,M,Raw,
2,Kamil Kuriata,2001,Poland,72.5,125,132.5,142.5,142.5,142.5,74,Sub-Juniors,B,M,Raw,
3,Elmeri Pennanen,2000,Finland,72.15,120,125,-132.5,125,125,74,Sub-Juniors,B,M,Raw,
DQ,Kozhakhmet Zhaltaev,2000,Kazakhstan,73.59,-165,-165,-165,,,74,Sub-Juniors,B,M,Raw,
1,Denys Antoshko,2000,Ukraine,82.65,150,155,-172.5,155,155,83,Sub-Juniors,B,M,Raw,
2,Ayubkhan Absattarov,2000,Kazakhstan,82.39,140,145,152.5,152.5,152.5,83,Sub-Juniors,B,M,Raw,
3,Michał Kowalczyk,2001,Poland,81.04,125,135,145,145,145,83,Sub-Juniors,B,M,Raw,
1,Jakub Lenart,2001,Poland,84.07,150,157.5,162.5,162.5,162.5,93,Sub-Juniors,B,M,Raw,
2,Nicolas Tóth,2001,Czechia,92.47,150,157.5,-162.5,157.5,157.5,93,Sub-Juniors,B,M,Raw,
3,Rustam Valiullin,2000,Kazakhstan,92.43,132.5,142.5,-157.5,142.5,142.5,93,Sub-Juniors,B,M,Raw,
4,Viktor Ergin,2002,Russia,87.04,130,140,-142.5,140,140,93,Sub-Juniors,B,M,Raw,
1,Antons Putnis,2000,Latvia,102.37,165,172.5,-180,172.5,172.5,105,Sub-Juniors,B,M,Raw,
2,Václav Vlk,2000,Czechia,100.96,140,150,-155,150,150,105,Sub-Juniors,B,M,Raw,
3,Patrik Steinoch,2000,Czechia,101.56,-150,150,-155,150,150,105,Sub-Juniors,B,M,Raw,
4,Iiro Riekkinen,2000,Finland,98.93,-135,140,-150,140,140,105,Sub-Juniors,B,M,Raw,
1,Karol Wójcik,2001,Poland,108.39,142.5,147.5,-155,147.5,147.5,120,Sub-Juniors,B,M,Raw,
2,Vadim Sassin,2000,Kazakhstan,119.23,132.5,142.5,-155,142.5,142.5,120,Sub-Juniors,B,M,Raw,
3,Ihor Orobets,2000,Ukraine,106.33,115,122.5,127.5,127.5,127.5,120,Sub-Juniors,B,M,Raw,
1,Alexander Sidorychev,2000,Russia,129.55,160,167.5,170,170,170,120+,Sub-Juniors,B,M,Raw,
2,Nuutti Mansukoski,2000,Finland,128.39,160,165,-167.5,165,165,120+,Sub-Juniors,B,M,Raw,
1,Furkat Shamuratov,1996,Kazakhstan,52.54,107.5,115,117.5,117.5,117.5,53,Juniors,B,M,Raw,
2,Marko Kiviniemi,1999,Finland,51.75,100,107.5,-115,107.5,107.5,53,Juniors,B,M,Raw,
1,Masatatsu Hondo,1995,Japan,58.82,155,-172,-172,155,155,59,Juniors,B,M,Raw,
2,Joschua-Noah Berger,1996,Germany,58.35,130,137.5,-145,137.5,137.5,59,Juniors,B,M,Raw,
3,Artturi Verho,1996,Finland,58.25,117.5,-122.5,-122.5,117.5,117.5,59,Juniors,B,M,Raw,
1,Konstantin Saukov,1996,Russia,65.17,155,160,165,165,165,66,Juniors,B,M,Raw,
2,Masaomi Tsuchida,1996,Japan,64.1,145,155,-160,155,155,66,Juniors,B,M,Raw,
3,Galbayar Enkhjargal,1997,Mongolia,65.88,147.5,-155,155,155,155,66,Juniors,B,M,Raw,
4,Alisher Makhmudov,1995,Kazakhstan,64.31,130,140,150,150,150,66,Juniors,B,M,Raw,
5,Ilya Kirillovskiy,1996,Kazakhstan,65.74,150,-157.5,-157.5,150,150,66,Juniors,B,M,Raw,
6,Topias Huhtamäki,1998,Finland,65.8,130,135,-142.5,135,135,66,Juniors,B,M,Raw,
1,Matti Christensen,1995,Denmark,73.95,187.5,195.5,-200,195.5,195.5,74,Juniors,B,M,Raw,
2,Lars Norin,1995,Sweden,72.34,167.5,172.5,177.5,177.5,177.5,74,Juniors,B,M,Raw,
3,Andrey Kim,1996,Kazakhstan,70.14,160,167.5,-172.5,167.5,167.5,74,Juniors,B,M,Raw,
4,Hubert Kłak,1996,Poland,72.99,160,165,-172.5,165,165,74,Juniors,B,M,Raw,
5,Vadym Yarzhemskyi,1999,Ukraine,72.89,162.5,-170,-172.5,162.5,162.5,74,Juniors,B,M,Raw,
6,Nika Arsenashvili,1998,Georgia,73.36,-160,160,-170,160,160,74,Juniors,B,M,Raw,
7,Sergey Levenchuk,1998,Kazakhstan,73.45,160,-165,-170,160,160,74,Juniors,B,M,Raw,
8,Dmitrii Guliaev,1997,Russia,73.14,150,155,-160,155,155,74,Juniors,B,M,Raw,
9,Miikka Hyötylä,1997,Finland,72.5,140,150,-152.5,150,150,74,Juniors,B,M,Raw,
DQ,Toni Hyttinen,1995,Finland,73.63,-140,-140,-140,,,74,Juniors,B,M,Raw,
1,Jemali Nandoshvili,1998,Georgia,81.99,-190,190,195,195,195,83,Juniors,B,M,Raw,
2,Teemu Hällfors,1995,Finland,80.77,175,182.5,185,185,185,83,Juniors,B,M,Raw,
3,Bohdan Bon,1995,UK,82.74,170,177.5,185,185,185,83,Juniors,B,M,Raw,
4,Zhavlan Shaukatov,1998,Kazakhstan,82.56,170,177.5,-185,177.5,177.5,83,Juniors,B,M,Raw,
5,Dávid Rácz',1996,Hungary,79.77,160,165,170,170,170,83,Juniors,B,M,Raw,
6,Tomáš Němec,1996,Czechia,81.5,145,150,-152.5,150,150,83,Juniors,B,M,Raw,
7,Dan Magee,1995,UK,82.24,137.5,142.5,-145,142.5,142.5,83,Juniors,B,M,Raw,
1,Kirill Tezichev,1997,Kazakhstan,90.81,192.5,200,210.5,210.5,210.5,93,Juniors,B,M,Raw,
2,Luke Tolman,1999,UK,88.74,195,205.5,-215,205.5,205.5,93,Juniors,B,M,Raw,
3,Nicolas Cuesta,1995,France,90.93,190,197.5,202.5,202.5,202.5,93,Juniors,B,M,Raw,
4,Artur Zalotov,1998,Ukraine,91.37,-192.5,192.5,-200,192.5,192.5,93,Juniors,B,M,Raw,
5,Linas Valuckas,1995,Australia,92.03,175,182.5,-185,182.5,182.5,93,Juniors,B,M,Raw,
6,Andreas Olausson,1995,Sweden,91.43,175,180,-185,180,180,93,Juniors,B,M,Raw,
7,Nazarii Lenkivskyi,1995,Ukraine,91.89,170,177.5,-182.5,177.5,177.5,93,Juniors,B,M,Raw,
8,Jonathon Lenzi,1995,UK,91.53,157.5,165,170,170,170,93,Juniors,B,M,Raw,
1,Yevgeniy Parshin,1995,Kazakhstan,102.93,200,207.5,210,210,210,105,Juniors,B,M,Raw,
2,Burkit Muratkhanuly,1995,Kazakhstan,104.44,197.5,202.5,210,210,210,105,Juniors,B,M,Raw,
3,Callum Crozier,1996,UK,103.79,190,200,207.5,207.5,207.5,105,Juniors,B,M,Raw,
4,Takahiro Takimoto,1996,Japan,100.29,190,200,-207.5,200,200,105,Juniors,B,M,Raw,
5,Vladyslav Komar,1995,Ukraine,104.87,190,197.5,-205,197.5,197.5,105,Juniors,B,M,Raw,
6,Michael Haxgart,1995,Denmark,103.41,185,195,-200,195,195,105,Juniors,B,M,Raw,
7,Aleh Kudrautsau,1998,Latvia,103.39,192.5,-202.5,-207.5,192.5,192.5,105,Juniors,B,M,Raw,
8,Bradley Horne #1,1997,UK,103.57,175,180,182.5,182.5,182.5,105,Juniors,B,M,Raw,
9,Shinichi Kato,1997,Japan,103.2,-150,150,165,165,165,105,Juniors,B,M,Raw,
1,Antoine Couvreur,1996,France,113.23,182.5,192.5,197.5,197.5,197.5,120,Juniors,B,M,Raw,
2,Kamil Jagiello,1998,Poland,105.26,190,195,-200,195,195,120,Juniors,B,M,Raw,
3,Yuri Karoglanyan,1999,Armenia,113.1,175,187.5,195,195,195,120,Juniors,B,M,Raw,
4,Yuki Nagoshi,1998,Japan,112.31,185,-195,-200,185,185,120,Juniors,B,M,Raw,
5,Lukasz Jedrysiak,1995,Poland,117.67,145,155,-162.5,155,155,120,Juniors,B,M,Raw,
1,Alex Véró,1996,Hungary,163.1,205,212.5,220,220,220,120+,Juniors,B,M,Raw,
2,Clay Ellis,1996,USA,154.89,-187.5,187.5,197.5,197.5,197.5,120+,Juniors,B,M,Raw,
3,Artem Agadzhanyan,1995,Latvia,124.66,190,192.5,-197.5,192.5,192.5,120+,Juniors,B,M,Raw,
4,Tomáš Král,1996,Czechia,143.1,175,-187.5,-187.5,175,175,120+,Juniors,B,M,Raw,
1,Sławomir Śledź,1976,Poland,58.86,125,130,135,135,135,59,Masters 1,B,M,Raw,
2,Zack Toh Cheng Leong,1973,Singapore,58.52,90,107.5,-110,107.5,107.5,59,Masters 1,B,M,Raw,
1,Mitsuo Kametani,1971,Japan,65.67,157.5,-165,-168,157.5,157.5,66,Masters 1,B,M,Raw,
2,Tomi Halmesmäki,1976,Finland,65.82,145,-147.5,-160,145,145,66,Masters 1,B,M,Raw,
3,Kenji Odake,1977,Japan,64.75,130,-140,-145,130,130,66,Masters 1,B,M,Raw,
4,Piotr Kotwica,1975,Poland,65.42,125,-132.5,-132.5,125,125,66,Masters 1,B,M,Raw,
5,Maik Staegemann,1969,Germany,65.08,115,-122.5,-122.5,115,115,66,Masters 1,B,M,Raw,
6,Roger Hamilton-Smith,1975,UK,65.77,102.5,112.5,-117.5,112.5,112.5,66,Masters 1,B,M,Raw,
1,Alexey Kuleshov,1977,Russia,73.81,165,170,172.5,172.5,172.5,74,Masters 1,B,M,Raw,
2,Tetsuo Moriyama,1971,Japan,73.23,162.5,167.5,-170,167.5,167.5,74,Masters 1,B,M,Raw,
3,Daisuke Takeda,1976,Japan,72.29,150,155,-157.5,155,155,74,Masters 1,B,M,Raw,
4,Jean-Pierre Nembrot,1974,France,73.07,147.5,152.5,-157.5,152.5,152.5,74,Masters 1,B,M,Raw,
5,Bartosz Zelazko,1973,Poland,73.52,-150,150,-157.5,150,150,74,Masters 1,B,M,Raw,
6,Jonas Enkvist,1970,Finland,73.24,145,-150,-150,145,145,74,Masters 1,B,M,Raw,
7,Bjørn-Andre Egerdahl,1970,Norway,73.19,132.5,137.5,142.5,142.5,142.5,74,Masters 1,B,M,Raw,
8,Martin Smith #1,1973,UK,71.78,132.5,140,-145,140,140,74,Masters 1,B,M,Raw,
1,Faisal Alzaabi,1978,UAE,82.14,175,180,185,185,185,83,Masters 1,B,M,Raw,
2,Rémi Perichon,1976,France,81.31,172.5,177.5,-185,177.5,177.5,83,Masters 1,B,M,Raw,
3,Tomi Viianen,1975,Finland,81.81,-172.5,-172.5,172.5,172.5,172.5,83,Masters 1,B,M,Raw,
4,Shane Heywood,1977,USA,79.97,150,157.5,-172.5,157.5,157.5,83,Masters 1,B,M,Raw,
5,Johannes Jonsson,1978,Sweden,81.43,157.5,-167.5,-167.5,157.5,157.5,83,Masters 1,B,M,Raw,
6,Danny Bochmann,1976,Germany,82.5,125,130,132.5,132.5,132.5,83,Masters 1,B,M,Raw,
7,Jens Mogren,1976,Sweden,81.96,-125,125,-132.5,125,125,83,Masters 1,B,M,Raw,
DQ,Seiji Takatori,1975,Japan,82.59,-195,-195,-195,,,83,Masters 1,B,M,Raw,
1,Chris Walter,1971,USA,91.14,190,192.5,-205,192.5,192.5,93,Masters 1,B,M,Raw,
2,Mika Lehtinen,1973,Finland,92.28,182.5,187.5,-195,187.5,187.5,93,Masters 1,B,M,Raw,
3,Sheridan Wray,1974,UK,92.66,180,-187.5,-190,180,180,93,Masters 1,B,M,Raw,
4,Zsolt Deres,1977,Hungary,92.84,160,170,-182.5,170,170,93,Masters 1,B,M,Raw,
5,Daniel Cieplak,1973,Poland,91.44,155,160,165,165,165,93,Masters 1,B,M,Raw,
6,Franck Levresse,1976,France,92.54,162.5,-167.5,-167.5,162.5,162.5,93,Masters 1,B,M,Raw,
7,Drew Blackman,1978,UK,90.55,142.5,150,-155,150,150,93,Masters 1,B,M,Raw,
1,Pavel Milovanov,1977,Russia,104.3,210,217.5,-228,217.5,217.5,105,Masters 1,B,M,Raw,
2,Kornél Schauer,1977,Hungary,104.55,207.5,212.5,-222.5,212.5,212.5,105,Masters 1,B,M,Raw,
3,Anders Henriksson,1975,Sweden,103.95,197.5,205,210,210,210,105,Masters 1,B,M,Raw,
4,Josef Schaffer,1976,USA,102.46,197.5,205,-210,205,205,105,Masters 1,B,M,Raw,
5,Marc Bouteiller,1971,France,100.95,-190,195,-205,195,195,105,Masters 1,B,M,Raw,
6,Jussi Kuusikko,1975,Finland,102.82,180,185,190,190,190,105,Masters 1,B,M,Raw,
7,Jan Kuehl,1971,Germany,102.52,180,187.5,-190,187.5,187.5,105,Masters 1,B,M,Raw,
8,Mikolaj Kowalik,1971,Poland,103.6,180,185,-190,185,185,105,Masters 1,B,M,Raw,
9,Thomas Kraemer,1970,Germany,104.07,160,170,177.5,177.5,177.5,105,Masters 1,B,M,Raw,
10,Akihide Yoshida,1973,Japan,95.68,150,165,175,175,175,105,Masters 1,B,M,Raw,
11,Nicolas Briere #1,1972,France,95.07,165,170,-172.5,170,170,105,Masters 1,B,M,Raw,
DD,Stanislaw Gasienica-Makowski,1973,UK,113.6,235,243,-245,243,,120,Masters 1,B,M,Raw,
1,Pavol Demčák,1977,Czechia,118.51,215,220,-227.5,220,220,120,Masters 1,B,M,Raw,
2,Antti Vihola,1975,Finland,119.41,200,212.5,-222.5,212.5,212.5,120,Masters 1,B,M,Raw,
3,Charles Duval,1972,France,119.68,200,205,-215,205,205,120,Masters 1,B,M,Raw,
4,Viacheslav Petrov,1971,Ukraine,116.15,202.5,-210,-212.5,202.5,202.5,120,Masters 1,B,M,Raw,
5,Arnaud Clavier,1975,France,119.12,175,182.5,190,190,190,120,Masters 1,B,M,Raw,
6,Ryan Gill,1976,USA,117.3,177.5,185,-205,185,185,120,Masters 1,B,M,Raw,
7,Hiroshi Saiko,1972,Japan,113.46,170,-175,-175,170,170,120,Masters 1,B,M,Raw,
1,Tero Seppänen,1972,Finland,151.73,230,245,-258,245,245,120+,Masters 1,B,M,Raw,
2,Dominic Sirianni,1977,USA,137.23,212.5,-220,220,220,220,120+,Masters 1,B,M,Raw,
3,Joe Dibert,1969,USA,132.3,212.5,-217.5,217.5,217.5,217.5,120+,Masters 1,B,M,Raw,
4,Sascha Wolf,1977,Germany,140.81,205,-215,215,215,215,120+,Masters 1,B,M,Raw,
5,Omar Jumaa Al Dhareri,1971,UAE,199.3,212.5,-217.5,-220,212.5,212.5,120+,Masters 1,B,M,Raw,
6,Éric Bonin,1972,France,131.77,200,205,-212.5,205,205,120+,Masters 1,B,M,Raw,
7,Nicklas Karlsson,1969,Sweden,123.91,180,187.5,192.5,192.5,192.5,120+,Masters 1,B,M,Raw,
1,Takashi Ono,1964,Japan,58.35,100,110,117.5,117.5,117.5,59,Masters 2,B,M,Raw,
2,Tomoyoshi Shiiki,1964,Japan,57.7,97.5,107.5,-115,107.5,107.5,59,Masters 2,B,M,Raw,
3,Ali Hamaissia,1967,France,56,92.5,95,97.5,97.5,97.5,59,Masters 2,B,M,Raw,
1,Oleksandr Chernyshov,1966,Ukraine,65.8,147.5,-156,-156,147.5,147.5,66,Masters 2,B,M,Raw,
2,Mika Visulaaka,1968,Finland,65.34,135,140,145,145,145,66,Masters 2,B,M,Raw,
3,Steve Petrencak,1968,USA,65.55,130,137.5,-142.5,137.5,137.5,66,Masters 2,B,M,Raw,
4,Rudolf Pleithner,1962,Germany,64.54,102.5,-107.5,-107.5,102.5,102.5,66,Masters 2,B,M,Raw,
5,Sackretz Heiko,1968,Germany,61.9,-95,95,-102.5,95,95,66,Masters 2,B,M,Raw,
1,Damian Fronzaglia,1965,USA,73.04,162.5,167.5,180,180,180,74,Masters 2,B,M,Raw,
2,Erkki Rajala,1962,Finland,73,160,165,-167.5,165,165,74,Masters 2,B,M,Raw,
3,Lars Carlsson,1966,Sweden,73.77,147.5,-152.5,-152.5,147.5,147.5,74,Masters 2,B,M,Raw,
4,Jack Rubio,1964,USA,73.59,-135,-135,135,135,135,74,Masters 2,B,M,Raw,
5,Eric Verhaege,1963,France,71.65,125,130,-135,130,130,74,Masters 2,B,M,Raw,
1,Aleksey Neveykov,1966,Russia,82.45,180,182.5,-187.5,182.5,182.5,83,Masters 2,B,M,Raw,
2,Markku Väisänen,1965,Finland,82.43,177.5,180,-183,180,180,83,Masters 2,B,M,Raw,
3,Harri Vahtolammi,1963,Finland,80.47,162.5,167.5,-170,167.5,167.5,83,Masters 2,B,M,Raw,
4,Patrik Fornander,1967,Sweden,82.52,160,165,-170,165,165,83,Masters 2,B,M,Raw,
5,Bo Lindgren,1967,Sweden,80.11,157.5,162.5,-167.5,162.5,162.5,83,Masters 2,B,M,Raw,
6,Roy Berndt,1966,Germany,80.78,147.5,152.5,-157.5,152.5,152.5,83,Masters 2,B,M,Raw,
7,Donovan Thompson,1966,USA,82.67,142.5,152.5,-165,152.5,152.5,83,Masters 2,B,M,Raw,
8,Philippe Langevin,1961,France,82.12,-150,150,-157.5,150,150,83,Masters 2,B,M,Raw,
9,Frank Bock,1967,Germany,82.5,140,145,-150,145,145,83,Masters 2,B,M,Raw,
10,Kevin Barrs,1962,UK,82.21,132.5,-140,-140,132.5,132.5,83,Masters 2,B,M,Raw,
11,Richard Wheeler,1964,UK,81.78,112.5,117.5,120,120,120,83,Masters 2,B,M,Raw,
1,Andy Rigby,1962,UK,92.64,187.5,195,205,205,205,93,Masters 2,B,M,Raw,
2,Valerii Nikishin,1965,Russia,91.83,185,-192.5,-195,185,185,93,Masters 2,B,M,Raw,
3,Hervé France,1966,France,92.01,172.5,180,-182.5,180,180,93,Masters 2,B,M,Raw,
4,Pentti Pitkänen,1965,Finland,92.51,175,180,-182.5,180,180,93,Masters 2,B,M,Raw,
5,Mike Burns,1966,USA,90.39,175,-180,-180,175,175,93,Masters 2,B,M,Raw,
6,Gordon Sjodin,1966,Canada,92.5,155,165,-177.5,165,165,93,Masters 2,B,M,Raw,
7,Osamu Sano,1963,Japan,91.21,150,155,-160,155,155,93,Masters 2,B,M,Raw,
8,Joacim Johansson,1966,Sweden,91.91,155,-165,-165,155,155,93,Masters 2,B,M,Raw,
9,Yukihiko Oguro,1960,Japan,90.41,130,-145,-145,130,130,93,Masters 2,B,M,Raw,
10,Robert Truchon,1968,Canada,90.71,110,117.5,-120,117.5,117.5,93,Masters 2,B,M,Raw,
1,Satoshi Ito,1966,Japan,104.22,200,205,-220,205,205,105,Masters 2,B,M,Raw,
2,Anthony Succarotte,1965,USA,103.79,187.5,192.5,197.5,197.5,197.5,105,Masters 2,B,M,Raw,
3,David Johnson,1967,USA,104,185,190,197.5,197.5,197.5,105,Masters 2,B,M,Raw,
4,Philippe Szezepanski,1964,France,102.56,182.5,187.5,-195,187.5,187.5,105,Masters 2,B,M,Raw,
5,Chris Cooper,1962,UK,103.9,155,162.5,-165,162.5,162.5,105,Masters 2,B,M,Raw,
6,Tor Granvang,1963,Norway,102.19,150,160,-165,160,160,105,Masters 2,B,M,Raw,
1,János Cserna,1968,Hungary,119.34,205,207.5,-222.5,207.5,207.5,120,Masters 2,B,M,Raw,
2,Alistair Murdoch,1967,UK,112.35,190,200,202.5,202.5,202.5,120,Masters 2,B,M,Raw,
3,Jean-Yves Minelle,1966,France,117,-202.5,202.5,-207.5,202.5,202.5,120,Masters 2,B,M,Raw,
4,Wolfgang Zimmermann,1968,Germany,116.24,-190,190,195,195,195,120,Masters 2,B,M,Raw,
5,Alf Granvang,1964,Norway,110.16,180,190,-200,190,190,120,Masters 2,B,M,Raw,
6,Roger Gehrt,1964,USA,111.02,182.5,187.5,-195,187.5,187.5,120,Masters 2,B,M,Raw,
7,Jukka Lahikainen,1968,Finland,116.25,-185,185,-195,185,185,120,Masters 2,B,M,Raw,
1,Kjell Furesund,1966,Norway,136.68,215,222.5,-235,222.5,222.5,120+,Masters 2,B,M,Raw,
2,Vitaliy Morozevich,1966,Russia,205,210,-215,,210,210,120+,Masters 2,B,M,Raw,
3,Lubomír Růžička,1967,Czechia,127.08,195,200,-202.5,200,200,120+,Masters 2,B,M,Raw,
4,Georg Haug,1965,Germany,149.42,200,-202.5,-202.5,200,200,120+,Masters 2,B,M,Raw,
5,Torsten Schult,1963,Germany,161.41,195,-200,-202.5,195,195,120+,Masters 2,B,M,Raw,
6,Karl-Johan Renlund,1966,Finland,171.68,180,-185,-185,180,180,120+,Masters 2,B,M,Raw,
7,Pekka Porttikivi,1963,Finland,136.54,170,-175,-175,170,170,120+,Masters 2,B,M,Raw,
1,Sam Felts,1952,USA,58.49,92.5,100,-107.5,100,100,59,Masters 3,B,M,Raw,
2,Jevgēņijs Vorobjovs,1953,Latvia,56.3,82.5,85,-92.5,85,85,59,Masters 3,B,M,Raw,
3,Alexander Moiseev,1954,Belarus,58.29,80,-85,-87.5,80,80,59,Masters 3,B,M,Raw,
1,Martti Kilpeläinen,1955,Finland,65.07,120,125,130,130,130,66,Masters 3,B,M,Raw,
2,Claude Sitruk,1950,France,65.48,127.5,130,-132.5,130,130,66,Masters 3,B,M,Raw,
3,Birger Sundstøl,1954,Norway,64,75,80,85,85,85,66,Masters 3,B,M,Raw,
1,Daniel Sides,1956,USA,73.46,-142.5,147.5,148.5,148.5,148.5,74,Masters 3,B,M,Raw,
2,Yasuhiro Hayashi,1956,Japan,73.07,135,-145,148,148,148,74,Masters 3,B,M,Raw,
3,Susumu Watanabe,1953,Japan,72.61,140,142.5,-145,142.5,142.5,74,Masters 3,B,M,Raw,
4,Ilkka Kanerva,1957,Finland,72.26,130,-137.5,140,140,140,74,Masters 3,B,M,Raw,
5,Vasilii Motovilnik,1957,Russia,72.44,140,-145,-147.5,140,140,74,Masters 3,B,M,Raw,
1,Junichi Isu,1954,Japan,81.2,157.5,162.5,-165.5,162.5,162.5,83,Masters 3,B,M,Raw,
2,Detlef Heinrich,1956,Germany,80.3,157.5,160,-165,160,160,83,Masters 3,B,M,Raw,
3,Miroslav Fugiel,1955,Poland,81.88,152.5,157.5,-163,157.5,157.5,83,Masters 3,B,M,Raw,
4,Juji Otani,1957,Japan,77.8,150,-155,155,155,155,83,Masters 3,B,M,Raw,
5,Bjarne Synstad,1951,Norway,81.88,150,152.5,-160,152.5,152.5,83,Masters 3,B,M,Raw,
6,Howard Sturman,1958,USA,80.62,147.5,-152.5,-152.5,147.5,147.5,83,Masters 3,B,M,Raw,
7,Reima Häkkinen,1950,Finland,80.91,145,-150,-152.5,145,145,83,Masters 3,B,M,Raw,
8,Alain Delbeck,1954,France,81.6,122.5,127.5,130,130,130,83,Masters 3,B,M,Raw,
DQ,Arthur Hirner,1957,Germany,82.56,-137.5,-137.5,-137.5,,,83,Masters 3,B,M,Raw,
1,Juha Koivisto,1956,Finland,90.22,155,-160,160,160,160,93,Masters 3,B,M,Raw,
2,Ilkka Launonen,1954,Finland,90.41,155,160,-162.5,160,160,93,Masters 3,B,M,Raw,
3,Alf Olsson,1955,Sweden,90.55,142.5,147.5,-150,147.5,147.5,93,Masters 3,B,M,Raw,
4,Pascal Bordat,1953,France,90.63,137.5,-142.5,-142.5,137.5,137.5,93,Masters 3,B,M,Raw,
5,Erick Deconninck,1956,France,83.2,-125,130,-137.5,130,130,93,Masters 3,B,M,Raw,
1,Stanisław Mentel,1954,Poland,98.17,185,192.5,195,195,195,105,Masters 3,B,M,Raw,
2,Eino Pöntiö,1958,Finland,104.31,175,182.5,185,185,185,105,Masters 3,B,M,Raw,
3,Jan Vastenburg Elbert,1956,Netherlands,97.39,170,175,182.5,182.5,182.5,105,Masters 3,B,M,Raw,
4,Bob Baxter,1952,UK,103.03,125,135,140,140,140,105,Masters 3,B,M,Raw,
5,Manuel Rodriguez Pineiro Rodrigo,1957,Spain,98.55,115,125,130,130,130,105,Masters 3,B,M,Raw,
6,Antton Kallingi,1956,Sweden,95.2,125,-130,-135,125,125,105,Masters 3,B,M,Raw,
DQ,Jean-Pierre Aymon,1954,Switzerland,103.12,-160,-160,-160,,,105,Masters 3,B,M,Raw,
1,Dainis Reinholds,1951,Latvia,119.1,180,190,192.5,192.5,192.5,120,Masters 3,B,M,Raw,
2,Werner Wieninger,1957,Germany,112.35,165,172.5,175,175,175,120,Masters 3,B,M,Raw,
3,Harri Tirronen,1953,Finland,108.66,-167.5,170,172.5,172.5,172.5,120,Masters 3,B,M,Raw,
4,Hans-Peter Falk,1951,Germany,106.11,150,-160,-160,150,150,120,Masters 3,B,M,Raw,
5,David Brooks,1952,UK,114.74,142.5,-147.5,-147.5,142.5,142.5,120,Masters 3,B,M,Raw,
6,Julian Massey,1956,UK,109.85,110,112.5,117.5,117.5,117.5,120,Masters 3,B,M,Raw,
7,Daniel Royer,1957,Canada,108.51,100,110,115,115,115,120,Masters 3,B,M,Raw,
1,David Sneen,1955,USA,123.43,170,175,-195,175,175,120+,Masters 3,B,M,Raw,
2,Risto Korhonen,1958,Finland,136.98,160,167.5,-177.5,167.5,167.5,120+,Masters 3,B,M,Raw,
1,Takeshi Shirakawa,1948,Japan,56.77,110,120,-122.5,120,120,59,Masters 4,B,M,Raw,
2,Mel Tatsumi,1948,USA,56.25,60,70,-75,70,70,59,Masters 4,B,M,Raw,
1,Pierre Gallart,1944,France,61,95,100,107.5,107.5,107.5,66,Masters 4,B,M,Raw,
2,Masaki Utani,1948,Japan,62.37,95,100,-107.5,100,100,66,Masters 4,B,M,Raw,
3,Serge Sorci,1941,France,64.6,87.5,92.5,-95,92.5,92.5,66,Masters 4,B,M,Raw,
4,Alexander Diepold,1937,Germany,65.1,90,92.5,-97.5,92.5,92.5,66,Masters 4,B,M,Raw,
5,Leonids Anastasjevs,1941,Latvia,64.24,85,90,-92.5,90,90,66,Masters 4,B,M,Raw,
6,Ilkka Mikkonen,1941,Finland,64.8,80,82.5,85,85,85,66,Masters 4,B,M,Raw,
7,Iosif Plagov,1935,USA,65.2,80,-85,-85,80,80,66,Masters 4,B,M,Raw,
1,Antero Kauranen,1948,Finland,73.51,125.5,-127.5,-127.5,125.5,125.5,74,Masters 4,B,M,Raw,
2,Lothar Koehl,1947,Germany,72.4,-115,115,122.5,122.5,122.5,74,Masters 4,B,M,Raw,
3,Tsutomu Ichikawa,1947,Japan,72.9,115,120,-122.5,120,120,74,Masters 4,B,M,Raw,
4,Boleslaw Maka,1942,Poland,73.4,112.5,115,-120,115,115,74,Masters 4,B,M,Raw,
5,Börje Eriksson,1942,Sweden,72.91,90,-95,-95,90,90,74,Masters 4,B,M,Raw,
6,Talipbek Alzhanov,1942,Kazakhstan,66.6,75,80,85,85,85,74,Masters 4,B,M,Raw,
1,Yasushi Iida,1943,Japan,81.42,125,130,135.5,135.5,135.5,83,Masters 4,B,M,Raw,
2,Mike Settles,1944,USA,81.95,125,130,-136,130,130,83,Masters 4,B,M,Raw,
3,Horst Lorenz,1940,Germany,76.25,112.5,117.5,-120,117.5,117.5,83,Masters 4,B,M,Raw,
4,Gaetan Guarino,1947,France,81.5,110,115,-120,115,115,83,Masters 4,B,M,Raw,
5,Kalevi Lampinen,1943,Finland,80.27,95,105,107.5,107.5,107.5,83,Masters 4,B,M,Raw,
6,Olavi Kallio,1933,Finland,82.64,100,105,-110,105,105,83,Masters 4,B,M,Raw,
7,Louis Girma,1945,France,80.68,95,100,-102.5,100,100,83,Masters 4,B,M,Raw,
1,Seppo Komppa,1945,Finland,91.8,127.5,130,132.5,132.5,132.5,93,Masters 4,B,M,Raw,
2,Reino Wahlroos,1948,Finland,91.98,117.5,-125,-125,117.5,117.5,93,Masters 4,B,M,Raw,
3,Peer Bjaaland,1942,Norway,84.7,90,105,-117.5,105,105,93,Masters 4,B,M,Raw,
1,Werner Richter,1947,Germany,102.03,170,176,180,180,180,105,Masters 4,B,M,Raw,
2,Jorma Kanerva,1948,Finland,103.87,130,140,-145,140,140,105,Masters 4,B,M,Raw,
3,Georg Ramsauer,1947,Germany,102.87,110,117.5,-125,117.5,117.5,105,Masters 4,B,M,Raw,
1,Mikko Seikkula,1946,Finland,118.52,177.5,182.5,189,189,189,120,Masters 4,B,M,Raw,
2,Niilo Maliniemi,1946,Sweden,117.46,-175,180,-185,180,180,120,Masters 4,B,M,Raw,
3,Tom Collins #1,1946,UK,108.73,145,152.5,155,155,155,120,Masters 4,B,M,Raw,
4,Mujir El Alami,1946,Sweden,112.27,-130,-130,130,130,130,120,Masters 4,B,M,Raw,
1,Valdis Alksnītis,1941,Latvia,138.87,170,-180,-180,170,170,120+,Masters 4,B,M,Raw,
1,Tetiana Shchavinska,1996,Ukraine,46.57,77.5,80,82.5,82.5,82.5,47,Open,B,F,Raw,
2,Tatyana Koroleva,1986,Russia,46.97,-75,77.5,-82.5,77.5,77.5,47,Open,B,F,Raw,
3,Karina Simonyants,1977,Russia,46.75,72.5,75,-77.5,75,75,47,Open,B,F,Raw,
4,Iryna Shkaraputa,1994,Ukraine,46.79,72.5,75,-77.5,75,75,47,Open,B,F,Raw,
5,Aya Fukumura,1986,Japan,46.51,65,-72.5,-75,65,65,47,Open,B,F,Raw,
6,Jasmine Lake,1980,UK,45.37,57.5,60,-62.5,60,60,47,Open,B,F,Raw,
1,Hanna Rantala,1982,Finland,50.91,92.5,97.5,102.5,102.5,102.5,52,Open,B,F,Raw,
2,Sophia Waldemarson,1988,Sweden,50.74,95,100,-105,100,100,52,Open,B,F,Raw,
3,Mónika Nyers,1978,Hungary,50.8,92.5,97.5,-102.5,97.5,97.5,52,Open,B,F,Raw,
4,Johanna Forsström,1988,Finland,51.24,85,90,-92.5,90,90,52,Open,B,F,Raw,
5,Bibidjan Gulmurzayeva,1988,Turkmenistan,51.28,85,90,-92.5,90,90,52,Open,B,F,Raw,
6,Audrey Mingot,1993,France,51.03,77.5,85,-87.5,85,85,52,Open,B,F,Raw,
7,Emma Rafferty,1993,UK,51.39,72.5,75,-80,75,75,52,Open,B,F,Raw,
1,Karolina Arvidson,1985,Sweden,56.14,97.5,102.5,105,105,105,57,Open,B,F,Raw,
2,Mélodie Anthouard,1988,France,56.47,97.5,102.5,105,105,105,57,Open,B,F,Raw,
3,Ekaterina Osipova,1991,Russia,56.34,95,100,102.5,102.5,102.5,57,Open,B,F,Raw,
4,Mariya Timoshina,1984,Kazakhstan,56.87,97.5,102.5,-105,102.5,102.5,57,Open,B,F,Raw,
5,Sylvie Mingot,1969,France,54.8,92.5,95,-97.5,95,95,57,Open,B,F,Raw,
6,Erika Salamon,1973,Hungary,54.87,95,-100,-102.5,95,95,57,Open,B,F,Raw,
7,Ganna Kadatska,1977,Ukraine,56.02,90,95,-100,95,95,57,Open,B,F,Raw,
8,Monika Sroczyk,1992,Poland,55.82,92.5,-97.5,-97.5,92.5,92.5,57,Open,B,F,Raw,
9,Jennie Faucheaux,1980,USA,56.42,85,87.5,90,90,90,57,Open,B,F,Raw,
1,Jennifer Thompson #1,1973,USA,62.65,125,140,144,144,144,63,Open,B,F,Raw,
2,Anna Birzhevaya,1992,Russia,62.19,120,125,-130,125,125,63,Open,B,F,Raw,
3,Zsanett Palágyi,1986,Hungary,61.17,110,115,-117.5,115,115,63,Open,B,F,Raw,
4,Kim Stevenson,1982,Australia,62.51,102.5,107.5,110,110,110,63,Open,B,F,Raw,
5,Anette Tunkkari,1983,Finland,62.04,102.5,107.5,-110,107.5,107.5,63,Open,B,F,Raw,
6,Ludivine Charles,1993,France,60.64,100,105,-107.5,105,105,63,Open,B,F,Raw,
7,Agnieszka Tuczykont,1985,Poland,61.17,102.5,-107.5,-107.5,102.5,102.5,63,Open,B,F,Raw,
8,Andrea Hammarström,1977,Sweden,62.11,102.5,-105,-107.5,102.5,102.5,63,Open,B,F,Raw,
9,Louice Persson,1992,Sweden,62.27,97.5,102.5,-107.5,102.5,102.5,63,Open,B,F,Raw,
10,Mari Engberg,1982,Finland,62.06,92.5,97.5,-100,97.5,97.5,63,Open,B,F,Raw,
11,Sabrina Moore #1,1989,UK,62.43,82.5,87.5,90,90,90,63,Open,B,F,Raw,
12,Maria Taccone,1981,Canada,63,75,82.5,-87.5,82.5,82.5,63,Open,B,F,Raw,
1,Xeniya Khan,1987,Kazakhstan,71.13,120,125,127.5,127.5,127.5,72,Open,B,F,Raw,
2,Rori Alter,1987,USA,70.91,115,120,122.5,122.5,122.5,72,Open,B,F,Raw,
3,Susanna Virkkunen,1973,Finland,69.64,112.5,117.5,-120,117.5,117.5,72,Open,B,F,Raw,
4,Kheda Beriava,1992,Russia,70.2,110,117.5,-120,117.5,117.5,72,Open,B,F,Raw,
5,Ekaterina Kryukova,1985,Kazakhstan,71.48,117.5,-122.5,-122.5,117.5,117.5,72,Open,B,F,Raw,
6,Eszter Kovacs,1992,Hungary,66.03,110,-115,-117.5,110,110,72,Open,B,F,Raw,
7,Iryna Vorobiova,1980,Ukraine,68.58,100,105,-120,105,105,72,Open,B,F,Raw,
8,Tina Ruedi,1981,Switzerland,69.82,95,100,102.5,102.5,102.5,72,Open,B,F,Raw,
9,Rachel Hughes #1,1994,UK,69.84,85,-90,90,90,90,72,Open,B,F,Raw,
10,Sheri Miles,1986,UK,71.97,85,-92.5,-92.5,85,85,72,Open,B,F,Raw,
1,Susanna Törrönen,1998,Finland,81.61,125,132.5,-140,132.5,132.5,84,Open,B,F,Raw,
2,Zhadyra Kabieva,1992,Kazakhstan,73.08,112.5,117.5,122.5,122.5,122.5,84,Open,B,F,Raw,
3,Clara Fridén,1992,Sweden,82.33,115,120,122.5,122.5,122.5,84,Open,B,F,Raw,
4,Aziza Abduraimova,1989,Kazakhstan,83.24,112.5,117.5,122.5,122.5,122.5,84,Open,B,F,Raw,
5,Christina Appleby-Phillips,1982,UK,79.72,105,112.5,-117.5,112.5,112.5,84,Open,B,F,Raw,
6,Dana Sandler,1979,Canada,81.96,85,-90,-90,85,85,84,Open,B,F,Raw,
1,Ágnes Szabó,1988,Hungary,117.81,140,145,147.5,147.5,147.5,84+,Open,B,F,Raw,
2,Xeniya Okatenko,1994,Kazakhstan,108.28,132.5,137.5,-145,137.5,137.5,84+,Open,B,F,Raw,
3,Mariya Zyryanova,1983,Russia,123.96,132.5,137.5,-142.5,137.5,137.5,84+,Open,B,F,Raw,
4,Inna Orobets,1971,Ukraine,105.68,115,122.5,-127.5,122.5,122.5,84+,Open,B,F,Raw,
5,Jodey Reisz,1975,USA,121.79,115,122.5,-130,122.5,122.5,84+,Open,B,F,Raw,
6,Camille Holland,1988,UK,127.28,105,112.5,117.5,117.5,117.5,84+,Open,B,F,Raw,
DQ,Tetyana Belousova,1975,Ukraine,111.67,-130,-130,-130,,,84+,Open,B,F,Raw,
1,Kristina Lieonienko,2001,Ukraine,41.99,40,45,50,50,50,43,Sub-Juniors,B,F,Raw,
2,Laura Paranai,2003,Hungary,42.66,32.5,37.5,-42.5,37.5,37.5,43,Sub-Juniors,B,F,Raw,
1,Kristina Popova,2001,Kazakhstan,46.96,65,69,-71,69,69,47,Sub-Juniors,B,F,Raw,
2,Nataliia Cheremenko,2001,Ukraine,46.49,62.5,-68.5,-69.5,62.5,62.5,47,Sub-Juniors,B,F,Raw,
3,Ilona Zhanysova,2000,Russia,46.35,55,57.5,-62.5,57.5,57.5,47,Sub-Juniors,B,F,Raw,
4,Paulina Wojtyla,2001,Poland,46.83,45,50,-60,50,50,47,Sub-Juniors,B,F,Raw,
1,Liszette Ortiz-Rosado,2001,USA,51.92,77.5,82.5,85,85,85,52,Sub-Juniors,B,F,Raw,
2,Heini Lipponen,2000,Finland,51.86,75,-77.5,77.5,77.5,77.5,52,Sub-Juniors,B,F,Raw,
3,Almira Arslanova,2000,Kazakhstan,50.95,40,47.5,50,50,50,52,Sub-Juniors,B,F,Raw,
1,Karolína Adamová,2000,Czechia,54.75,65,70,72.5,72.5,72.5,57,Sub-Juniors,B,F,Raw,
2,Alena Gladkova,2001,Kazakhstan,56.36,55,60,-75,60,60,57,Sub-Juniors,B,F,Raw,
3,Natalia Jablonska,2000,Poland,55.74,40,45,50,50,50,57,Sub-Juniors,B,F,Raw,
1,Taisiya Dyachenko,2000,Kazakhstan,62.51,87.5,97.5,102.5,102.5,102.5,63,Sub-Juniors,B,F,Raw,
2,Kateryna Kupaieva,2000,Ukraine,62.27,65,70,-72.5,70,70,63,Sub-Juniors,B,F,Raw,
1,Asel Nurkenova,2000,Kazakhstan,68.85,80,85,90,90,90,72,Sub-Juniors,B,F,Raw,
2,Lili Szabó,2000,Hungary,67.19,67.5,72.5,75,75,75,72,Sub-Juniors,B,F,Raw,
3,Suvi-Maaria Heinonen,2002,Finland,69.26,67.5,70,72.5,72.5,72.5,72,Sub-Juniors,B,F,Raw,
4,Mbasa Qilingele,2001,South Africa,66.2,-65,65,70,70,70,72,Sub-Juniors,B,F,Raw,
1,Iroda Abdirova,2001,Kazakhstan,81.96,65,72.5,80,80,80,84,Sub-Juniors,B,F,Raw,
2,Sofie Sällinen,2000,Finland,75.32,75,-77.5,-80,75,75,84,Sub-Juniors,B,F,Raw,
3,Karolina Kalbarczyk,2001,Poland,73.36,57.5,60,-65,60,60,84,Sub-Juniors,B,F,Raw,
4,Kinga Gaal,2000,Hungary,79.52,55,60,-65,60,60,84,Sub-Juniors,B,F,Raw,
1,Diana Malykhina,2003,Kazakhstan,103.77,70,80,85,85,85,84+,Sub-Juniors,B,F,Raw,
1,Oisha Aleksandrova,1999,Russia,41.47,57.5,60,-65,60,60,43,Juniors,B,F,Raw,
2,Rada Dmitrieva,1999,Russia,42.89,50,55,57.5,57.5,57.5,43,Juniors,B,F,Raw,
3,Mayu Kawakami,1995,Japan,42.4,47.5,52.5,55,55,55,43,Juniors,B,F,Raw,
1,Emelie Elvegård,1995,Sweden,46.2,77.5,82.5,86,86,86,47,Juniors,B,F,Raw,
2,Viktoria Druziaka,1998,Ukraine,46.2,67.5,70,72.5,72.5,72.5,47,Juniors,B,F,Raw,
3,Daria Vishniakova,1997,Russia,46.34,62.5,70,-75,70,70,47,Juniors,B,F,Raw,
1,Marta Sroczyk,1995,Poland,51.32,-82.5,85,-90,85,85,52,Juniors,B,F,Raw,
2,Tetyana Shlopko,1996,Ukraine,51.19,77.5,82.5,-87.5,82.5,82.5,52,Juniors,B,F,Raw,
3,Iuliia Ivanova,1998,Russia,51.6,72.5,75,77.5,77.5,77.5,52,Juniors,B,F,Raw,
4,Saniya Omarkhanova,1999,Kazakhstan,51.46,65,-72.5,-75,65,65,52,Juniors,B,F,Raw,
1,Donna Berglund,1997,Sweden,56.71,95,103,-116,103,103,57,Juniors,B,F,Raw,
2,Anna Rykun,1998,Ukraine,56.87,85,90,-95,90,90,57,Juniors,B,F,Raw,
3,Krista Määttä,1995,Finland,56.78,82.5,85,-90,85,85,57,Juniors,B,F,Raw,
4,Essi Laakso,1995,Finland,55.45,82.5,-87.5,-87.5,82.5,82.5,57,Juniors,B,F,Raw,
5,Ekaterina Antošová,1995,Czechia,55.89,75,80,-85,80,80,57,Juniors,B,F,Raw,
6,Emily Norley,1996,UK,56.78,67.5,72.5,75,75,75,57,Juniors,B,F,Raw,
1,W Boegedahl Kamilla,1995,Denmark,62.92,100,105,-112.5,105,105,63,Juniors,B,F,Raw,
2,Anastasiya Zhurbina,1999,Kazakhstan,62.43,95,102.5,-110,102.5,102.5,63,Juniors,B,F,Raw,
3,Nadezhda Churilova,1996,Russia,61.73,82.5,-87.5,87.5,87.5,87.5,63,Juniors,B,F,Raw,
4,Orkhontuul Ochirbat,1997,Mongolia,62.54,80,-85,85,85,85,63,Juniors,B,F,Raw,
5,Suzanne Goulder,1996,UK,62.94,70,-75,75,75,75,63,Juniors,B,F,Raw,
6,Lucy Hart,1995,UK,60.66,55,60,-62.5,60,60,63,Juniors,B,F,Raw,
1,Vilma Olsson,1999,Sweden,67.92,97.5,102.5,107.5,107.5,107.5,72,Juniors,B,F,Raw,
2,Anna Mikryukova,1999,Russia,67.36,95,100,105,105,105,72,Juniors,B,F,Raw,
3,Julianna Löllö,1995,Finland,68.24,95,100,102.5,102.5,102.5,72,Juniors,B,F,Raw,
4,Tuulia Lohivuo,1997,Finland,66.12,92.5,-97.5,100,100,100,72,Juniors,B,F,Raw,
5,Marthine Myhr,1999,Norway,66.97,90,95,97.5,97.5,97.5,72,Juniors,B,F,Raw,
6,Maren Smaabakk Arnesen,1998,Norway,69.8,92.5,97.5,-102.5,97.5,97.5,72,Juniors,B,F,Raw,
7,Sandra Augustiniok,1999,Germany,70.3,87.5,95,-97.5,95,95,72,Juniors,B,F,Raw,
8,Dakota Reich,1998,Austria,68.21,80,85,-90,85,85,72,Juniors,B,F,Raw,
9,Zoe Clark,1995,UK,69.56,75,80,-82.5,80,80,72,Juniors,B,F,Raw,
10,Liz Mills,1996,UK,70.04,70,75,-77.5,75,75,72,Juniors,B,F,Raw,
1,Stephanie Carrillo-Chavez,1995,UK,80.72,102.5,110,120,120,120,84,Juniors,B,F,Raw,
2,Shelby Miles,1998,USA,83.04,102.5,110,-120,110,110,84,Juniors,B,F,Raw,
3,Brittney Barksdale,1996,USA,80.92,90,97.5,-100,97.5,97.5,84,Juniors,B,F,Raw,
4,Paulina Lechowicz,1996,Poland,82.28,92.5,97.5,-100,97.5,97.5,84,Juniors,B,F,Raw,
1,Regina Meier,1999,Kazakhstan,94.25,90,97.5,-102.5,97.5,97.5,84+,Juniors,B,F,Raw,
2,Alevtina Nikolaeva,1998,Kazakhstan,84.29,65,72.5,-80,72.5,72.5,84+,Juniors,B,F,Raw,
DQ,Anujin Chuluunbat,1999,Mongolia,111.11,-55,-57.5,-57.5,,,84+,Juniors,B,F,Raw,
1,Marcela Sandvik,1974,Finland,51.52,82.5,85,-90,85,85,52,Masters 1,B,F,Raw,
2,Akiko Nishikawa,1976,Japan,50.56,75,-77.5,77.5,77.5,77.5,52,Masters 1,B,F,Raw,
3,Maura Shuttleworth,1976,USA,51.89,70,-77.5,77.5,77.5,77.5,52,Masters 1,B,F,Raw,
1,Chiho Ito,1974,Japan,55.75,77.5,82.5,-87.5,82.5,82.5,57,Masters 1,B,F,Raw,
2,Helen Hughes #1,1976,UK,55.1,75,80,-85,80,80,57,Masters 1,B,F,Raw,
3,Tatjana Spakova,1970,Latvia,56.31,70,75,-82.5,75,75,57,Masters 1,B,F,Raw,
4,Martina Rummel,1976,Germany,53.54,65,-67.5,-67.5,65,65,57,Masters 1,B,F,Raw,
5,Chie Shinohara,1970,Japan,56.1,55,62.5,-65,62.5,62.5,57,Masters 1,B,F,Raw,
1,Silvia Stütz,1978,Germany,62.05,82.5,87.5,90,90,90,63,Masters 1,B,F,Raw,
2,Stéphanie Carion,1974,France,57.25,77.5,82.5,87.5,87.5,87.5,63,Masters 1,B,F,Raw,
3,Christelle Maniez,1975,France,62.85,80,85,-90,85,85,63,Masters 1,B,F,Raw,
4,Galit Goldshmid,1977,UK,61.46,75,80,-82.5,80,80,63,Masters 1,B,F,Raw,
5,Marjaana Vähäsantanen,1976,Finland,62.59,72.5,75,-77.5,75,75,63,Masters 1,B,F,Raw,
6,Simone Brandt,1971,Germany,61.13,55,62.5,65,65,65,63,Masters 1,B,F,Raw,
7,Kiyoko Ashikawa,1974,Japan,61.73,55,60,-65,60,60,63,Masters 1,B,F,Raw,
1,Tui Katene,1973,New Zealand,69.25,92.5,97.5,-102.5,97.5,97.5,72,Masters 1,B,F,Raw,
2,Beverley Rodgers,1972,UK,66.67,82.5,87.5,90,90,90,72,Masters 1,B,F,Raw,
3,Sanna Joutsela,1973,Finland,69.66,80,85,-87.5,85,85,72,Masters 1,B,F,Raw,
4,Petra Höglund,1975,Sweden,70.11,85,-87.5,-87.5,85,85,72,Masters 1,B,F,Raw,
5,Niina Hallikainen,1975,Finland,69.19,77.5,82.5,-85,82.5,82.5,72,Masters 1,B,F,Raw,
6,Miyuki Sakurai,1969,Japan,70.57,80,-85,-87.5,80,80,72,Masters 1,B,F,Raw,
7,Nicole Cervasio,1972,France,70.43,70,72.5,-75,72.5,72.5,72,Masters 1,B,F,Raw,
8,Sue Burns,1970,USA,64.93,45,50,-55,50,50,72,Masters 1,B,F,Raw,
1,Evelin Eisensehr,1973,Hungary,78.62,90,95,102.5,102.5,102.5,84,Masters 1,B,F,Raw,
2,Tiina Voho,1973,Finland,81.57,92.5,97.5,-105,97.5,97.5,84,Masters 1,B,F,Raw,
3,Nina Ruuhivirta,1977,Finland,81.14,90,95,-105,95,95,84,Masters 1,B,F,Raw,
4,Karina Müller-Freyer,1970,Germany,78.4,75,80,-85,80,80,84,Masters 1,B,F,Raw,
5,Pernilla Röhr,1972,Sweden,83.14,77.5,-80,-80,77.5,77.5,84,Masters 1,B,F,Raw,
6,Lindsey Woodcock,1977,UK,80.76,67.5,70,-72.5,70,70,84,Masters 1,B,F,Raw,
DQ,Inna Yudina,1978,Ukraine,81.62,-80,-80,-80,,,84,Masters 1,B,F,Raw,
1,Cindy Tilton,1969,USA,108.82,107.5,110,115,115,115,84+,Masters 1,B,F,Raw,
2,Eva-Maria Gall,1970,Germany,95.9,97.5,102.5,107.5,107.5,107.5,84+,Masters 1,B,F,Raw,
3,Joanna Linna,1974,Finland,89.63,-95,97.5,105,105,105,84+,Masters 1,B,F,Raw,
4,Kelly Phasey,1976,UK,124.22,95,100,-107.5,100,100,84+,Masters 1,B,F,Raw,
5,Jacqueline Gough,1977,UK,151.89,92.5,97.5,-102.5,97.5,97.5,84+,Masters 1,B,F,Raw,
1,Marion Friedrich,1965,Germany,46.01,70,75,-77.5,75,75,47,Masters 2,B,F,Raw,
2,Masami Shibata,1965,Japan,46.5,57.5,-60,-60,57.5,57.5,47,Masters 2,B,F,Raw,
3,Asami Kadoaki,1967,Japan,46.36,45,47.5,50,50,50,47,Masters 2,B,F,Raw,
1,Christine Lesellier,1963,France,50.34,77.5,-80.5,80.5,80.5,80.5,52,Masters 2,B,F,Raw,
2,Magdolna Petróczki,1968,Hungary,51.1,65,70,-72.5,70,70,52,Masters 2,B,F,Raw,
3,Eira Pajuharju,1964,Finland,51.71,55,60,62.5,62.5,62.5,52,Masters 2,B,F,Raw,
4,Brigitte Landon,1961,France,49.78,52.5,55,-60,55,55,52,Masters 2,B,F,Raw,
1,Marie-France Cabos,1967,France,55.99,67.5,70,-72.5,70,70,57,Masters 2,B,F,Raw,
2,Lynne Homan,1962,USA,56.87,60,-67.5,67.5,67.5,67.5,57,Masters 2,B,F,Raw,
3,Tarja Partanen,1967,Finland,56.4,62.5,-65,-67.5,62.5,62.5,57,Masters 2,B,F,Raw,
1,Ann Kristin Olsen,1967,Norway,60.27,85,90.5,-92.5,90.5,90.5,63,Masters 2,B,F,Raw,
2,Margetta Salminen,1961,Finland,62.34,62.5,-65,65,65,65,63,Masters 2,B,F,Raw,
3,Sinikka Näslund,1960,Finland,62.1,55,57.5,62.5,62.5,62.5,63,Masters 2,B,F,Raw,
4,Yoshiko Takagaki,1962,Japan,61.25,47.5,52.5,55,55,55,63,Masters 2,B,F,Raw,
1,Regina Haas,1962,Germany,71.05,95,102.5,107,107,107,72,Masters 2,B,F,Raw,
2,Minna Elgland,1965,Finland,71.75,82.5,85,87.5,87.5,87.5,72,Masters 2,B,F,Raw,
3,Patricia Maciejewski,1961,France,66.5,82.5,-87.5,-87.5,82.5,82.5,72,Masters 2,B,F,Raw,
4,Ursula Häuser,1960,Germany,69.89,75,80,-85,80,80,72,Masters 2,B,F,Raw,
5,Cynthia Line,1968,USA,70.01,72.5,-77.5,77.5,77.5,77.5,72,Masters 2,B,F,Raw,
6,Aline Leroy,1962,France,70.1,70,75,77.5,77.5,77.5,72,Masters 2,B,F,Raw,
7,Delwyn Evans,1964,New Zealand,70.45,72.5,75,77.5,77.5,77.5,72,Masters 2,B,F,Raw,
8,Julie Briggs,1962,UK,71.02,42.5,47.5,50,50,50,72,Masters 2,B,F,Raw,
1,Megumi Tokutake,1964,Japan,78.18,105,-110,-112.5,105,105,84,Masters 2,B,F,Raw,
2,Laurie MacDonald,1962,USA,81.2,77.5,85,-90,85,85,84,Masters 2,B,F,Raw,
3,Jana Olak,1966,Estonia,82.87,-82.5,82.5,-87.5,82.5,82.5,84,Masters 2,B,F,Raw,
4,Åsa Halvarsson,1961,Sweden,72.67,77.5,-82.5,-82.5,77.5,77.5,84,Masters 2,B,F,Raw,
5,Heli Valtonen,1961,Finland,74.78,-67.5,72.5,75,75,75,84,Masters 2,B,F,Raw,
6,Elizabeth Richardson,1962,USA,72.55,67.5,-72.5,-75,67.5,67.5,84,Masters 2,B,F,Raw,
1,Michelle Fayant,1964,USA,104,107.5,112.5,-120.5,112.5,112.5,84+,Masters 2,B,F,Raw,
2,Tarja Perälä,1968,Finland,97.46,90,95,-97.5,95,95,84+,Masters 2,B,F,Raw,
3,Nathalie Gransard,1964,France,90.21,80,85,-90,85,85,84+,Masters 2,B,F,Raw,
4,Ann Jordebo,1960,Sweden,98,62.5,65,-67.5,65,65,84+,Masters 2,B,F,Raw,
1,Pirjo Kemppainen,1951,Finland,46.37,25,-27.5,-27.5,25,25,47,Masters 3,B,F,Raw,
1,Aira Knutars,1954,Finland,51.32,60,65,67.5,67.5,67.5,52,Masters 3,B,F,Raw,
2,Janice Woerner,1958,USA,50.39,57.5,62.5,65,65,65,52,Masters 3,B,F,Raw,
3,Vuokko Viitasaari,1954,Finland,51.63,50,55,-60,55,55,52,Masters 3,B,F,Raw,
1,Chizuko Hoshita,1953,Japan,61.09,65,70,-72.5,70,70,63,Masters 3,B,F,Raw,
1,Evelyne Herbin,1956,France,66.96,72.5,-77.5,77.5,77.5,77.5,72,Masters 3,B,F,Raw,
2,Maritta Jaurola,1950,Finland,69.46,57.5,60,62.5,62.5,62.5,72,Masters 3,B,F,Raw,
1,Merja Mynttinen,1958,Finland,81.72,75,77.5,80,80,80,84,Masters 3,B,F,Raw,
1,Eva Speth,1954,Germany,89.68,87.5,92.5,-95,92.5,92.5,84+,Masters 3,B,F,Raw,
1,Liliane Boulle,1946,France,45.22,37.5,40,42.5,42.5,42.5,47,Masters 4,B,F,Raw,
1,Eila Kumpuniemi,1942,Finland,49.62,40,42.5,45,45,45,52,Masters 4,B,F,Raw,
2,Denise Johnson,1947,USA,51.61,32.5,35,-45,35,35,52,Masters 4,B,F,Raw,
1,Françoise Heligon,1943,France,53.09,50,-53,53,53,53,57,Masters 4,B,F,Raw,
2,Andrée Duboux,1946,France,55.17,42.5,45,-50,45,45,57,Masters 4,B,F,Raw,
1,Viktorija Rumjanceva,1942,Latvia,61.74,55,-58.5,-58.5,55,55,63,Masters 4,B,F,Raw,
2,Judith McGauley,1948,UK,58.78,35,37.5,40,40,40,63,Masters 4,B,F,Raw,
1,Tiiu Kimber,1948,Estonia,85.2,50,52.5,55,55,55,84+,Masters 4,B,F,Raw,
