Division,WeightClassKg,Place,Name,Team,BodyweightKg,Best3SquatKg,Best3BenchKg,Best3DeadliftKg,TotalKg,Equipment,Event,Sex
Girls,44.23,1,Lourdes Jaimes,Bonham,43.82,117.93,43.09,108.86,269.89,Single-ply,SBD,F
Girls,44.23,2,Erica Rico,Kennedale,41.19,102.06,45.36,115.67,263.08,Single-ply,SBD,F
Girls,44.23,3,Serena Arce,Springtown,43.27,102.06,52.16,99.79,254.01,Single-ply,SBD,F
Girls,44.23,4,Crystal Lively,Iowa Park,41.73,86.18,40.82,90.72,217.72,Single-ply,SBD,F
Girls,44.23,5,Julie Rico,Kennedale,40.1,79.38,36.29,92.99,208.65,Single-ply,SBD,F
Girls,44.23,6,Imelda Hernandez,Gainesville,43.73,77.11,29.48,92.99,199.58,Single-ply,SBD,F
Girls,44.23,7,Suzell Garcia,Castleberry,43.73,81.65,31.75,83.91,197.31,Single-ply,SBD,F
Girls,44.23,8,Ginger Phennel,Princeton,39.37,79.38,65.77,47.63,192.78,Single-ply,SBD,F
Girls,44.23,9,Sara Bazan,Princeton,41,72.57,27.22,74.84,174.63,Single-ply,SBD,F
Girls,44.23,10,Isabelle Castillo,Castleberry,41.73,58.97,27.22,72.57,158.76,Single-ply,SBD,F
Girls,44.23,DQ,Danielle Rodriguez,Princeton,41.73,79.38,43.09,81.65,,Single-ply,SBD,F
Girls,47.85,1,Jenny Lopez,Springtown,46.99,136.08,58.97,115.67,310.71,Single-ply,SBD,F
Girls,47.85,2,Alondra Watkins,Iowa Park,47.63,106.59,61.23,115.67,283.5,Single-ply,SBD,F
Girls,47.85,3,Kaley Bell,Princeton,47.81,104.33,52.16,106.59,263.08,Single-ply,SBD,F
Girls,47.85,4,Stefani Mason,Aubrey,47.08,102.06,47.63,92.99,242.67,Single-ply,SBD,F
Girls,47.85,5,Carolina Dominguez,Castleberry,46.54,88.45,54.43,97.52,240.4,Single-ply,SBD,F
Girls,47.85,6,Rebekah Roberts,Anna,46.08,92.99,56.7,88.45,238.14,Single-ply,SBD,F
Girls,47.85,7,Lindsey Markcum,Princeton,45.27,88.45,45.36,92.99,226.8,Single-ply,SBD,F
Girls,47.85,8,Rachel McGregor,Graham,44.81,88.45,34.02,95.25,217.72,Single-ply,SBD,F
Girls,47.85,9,Ashton Parton,Springtown,46.81,88.45,43.09,81.65,213.19,Single-ply,SBD,F
Girls,47.85,10,Harley Hawk,Springtown,47.36,83.91,40.82,86.18,210.92,Single-ply,SBD,F
Girls,47.85,11,Kenya Gomez,Bridgeport,46.99,77.11,38.56,92.99,208.65,Single-ply,SBD,F
Girls,47.85,12,Giselle Garcia,Bridgeport,44.91,58.97,24.95,61.23,145.15,Single-ply,SBD,F
Girls,47.85,DQ,Nicole Scott,Princeton,47.36,,,,,Single-ply,SBD,F
Girls,51.94,1,Jazmin Tejeda,Gainesville,50.44,108.86,56.7,147.42,312.98,Single-ply,SBD,F
Girls,51.94,2,Kandycee Walker,Bonham,51.8,131.54,52.16,129.27,312.98,Single-ply,SBD,F
Girls,51.94,3,Mindy Mullens,Springtown,50.35,111.13,56.7,129.27,297.1,Single-ply,SBD,F
Girls,51.94,4,Valerie Lord,Mineral Wells,50.53,108.86,54.43,106.59,269.89,Single-ply,SBD,F
Girls,51.94,5,Nancy Martinez,Decatur,50.53,104.33,43.09,117.93,265.35,Single-ply,SBD,F
Girls,51.94,6,Haley Bell,Princeton,49.62,102.06,52.16,108.86,263.08,Single-ply,SBD,F
Girls,51.94,7,Anna Raby,Bridgeport,50.53,95.25,56.7,111.13,263.08,Single-ply,SBD,F
Girls,51.94,8,Brooke Daniel,Nevada Community,50.35,95.25,43.09,97.52,235.87,Single-ply,SBD,F
Girls,51.94,9,Morgan Shook,Graham,49.8,83.91,40.82,104.33,229.06,Single-ply,SBD,F
Girls,51.94,10,Ashlie Lennard,Bridgeport,50.53,79.38,36.29,90.72,206.38,Single-ply,SBD,F
Girls,51.94,11,Payton Savage,Gainesville,49.8,77.11,36.29,83.91,197.31,Single-ply,SBD,F
Girls,51.94,12,Adriana Olivares,Anna,50.89,68.04,47.63,79.38,195.04,Single-ply,SBD,F
Girls,56.02,1,Lauren Tatom,Iowa Park,55.11,149.69,61.23,140.61,351.53,Single-ply,SBD,F
Girls,56.02,2,Alexandra Ross,Iowa Park,52.39,111.13,54.43,129.27,294.84,Single-ply,SBD,F
Girls,56.02,3,Sarah Scott #2,Anna,55.25,122.47,65.77,106.59,294.84,Single-ply,SBD,F
Girls,56.02,4,Trew Gaston,Springtown,53.16,111.13,61.23,115.67,288.03,Single-ply,SBD,F
Girls,56.02,5,Daviona Amos,Princeton,54.07,102.06,58.97,113.4,274.42,Single-ply,SBD,F
Girls,56.02,6,Tiffani Boon,Princeton,55.79,111.13,56.7,106.59,274.42,Single-ply,SBD,F
Girls,56.02,7,Emily Flatt,Princeton,54.34,106.59,61.23,104.33,272.16,Single-ply,SBD,F
Girls,56.02,8,Nalyn Koenig,Anna,54.52,95.25,52.16,120.2,267.62,Single-ply,SBD,F
Girls,56.02,9,Ashlynn Rhoades,Aubrey,55.7,108.86,58.97,97.52,265.35,Single-ply,SBD,F
Girls,56.02,10,Jennifer Martinez #6,Bridgeport,52.98,104.33,43.09,115.67,263.08,Single-ply,SBD,F
Girls,56.02,11,Brooke Hodge,Anna,55.07,97.52,58.97,104.33,260.82,Single-ply,SBD,F
Girls,56.02,12,Olivia Foster,Bonham,55.07,106.59,40.82,102.06,249.48,Single-ply,SBD,F
Girls,56.02,DQ,Angela Alcocer,Princeton,55.88,,,,,Single-ply,SBD,F
Girls,60.1,1,Alyese Vinson,Sanger,59.78,129.27,61.23,138.35,328.85,Single-ply,SBD,F
Girls,60.1,2,Becky Kudayah,Aubrey,58.33,120.2,58.97,131.54,310.71,Single-ply,SBD,F
Girls,60.1,3,Rachel Hellam,Springtown,59.06,138.35,52.16,120.2,310.71,Single-ply,SBD,F
Girls,60.1,4,Emily Tapia,Nevada Community,59.15,113.4,61.23,131.54,306.17,Single-ply,SBD,F
Girls,60.1,5,Allison Raby,Bridgeport,57.7,115.67,56.7,120.2,292.57,Single-ply,SBD,F
Girls,60.1,6,Beka Powers,Bridgeport,57.06,124.74,52.16,102.06,278.96,Single-ply,SBD,F
Girls,60.1,7,Kendra Smith,Bridgeport,59.06,102.06,63.5,111.13,276.69,Single-ply,SBD,F
Girls,60.1,8,Ruth Mitchell #1,Kennedale,59.15,108.86,49.9,117.93,276.69,Single-ply,SBD,F
Girls,60.1,9,Kaylee Rogers,Princeton,58.33,102.06,52.16,120.2,274.42,Single-ply,SBD,F
Girls,60.1,10,Vanessa Cardenas,Decatur,56.79,111.13,47.63,113.4,272.16,Single-ply,SBD,F
Girls,60.1,11,Kaye Cortez,Springtown,60.1,111.13,47.63,113.4,272.16,Single-ply,SBD,F
Girls,60.1,12,Maren Bubeck,Argyle,56.15,97.52,45.36,115.67,258.55,Single-ply,SBD,F
Girls,67.36,1,Jazmin Puryear,Lake Worth,65.95,156.49,68.04,170.1,394.63,Single-ply,SBD,F
Girls,67.36,2,Kylee Howard,Kennedale,64.05,151.95,79.38,158.76,390.09,Single-ply,SBD,F
Girls,67.36,3,Jessica Steinhoff,Aubrey,65.41,142.88,79.38,140.61,362.87,Single-ply,SBD,F
Girls,67.36,4,Katie Kemp,Anna,66.32,122.47,74.84,154.22,351.53,Single-ply,SBD,F
Girls,67.36,5,Madisyn Kile,Princeton,66.77,138.35,77.11,136.08,351.53,Single-ply,SBD,F
Girls,67.36,6,Julie Salazar,Bridgeport,64.05,138.35,77.11,117.93,333.39,Single-ply,SBD,F
Girls,67.36,7,Elyssa Leal,Iowa Park,64.41,120.2,63.5,131.54,315.25,Single-ply,SBD,F
Girls,67.36,8,Desiree Murray,Princeton,67.22,129.27,65.77,117.93,312.98,Single-ply,SBD,F
Girls,67.36,9,Faith Gunther,Princeton,64.95,122.47,61.23,124.74,308.44,Single-ply,SBD,F
Girls,67.36,10,Jacquelyn Bailey,Bridgeport,63.23,111.13,58.97,122.47,292.57,Single-ply,SBD,F
Girls,67.36,11,Kaycee Patterson,Iowa Park,66.22,111.13,70.31,104.33,285.76,Single-ply,SBD,F
Girls,67.36,12,Laren Rogers,Graham,65.23,97.52,61.23,113.4,272.16,Single-ply,SBD,F
Girls,67.36,DQ,Nicole King,Graham,66.68,113.4,61.23,113.4,,Single-ply,SBD,F
Girls,75.07,1,Emily Jondron,Princeton,73.66,145.15,115.67,158.76,419.57,Single-ply,SBD,F
Girls,75.07,2,Riece Talbert,Iowa Park,72.35,151.95,74.84,147.42,374.21,Single-ply,SBD,F
Girls,75.07,3,Maddie Dills,Bonham,73.21,145.15,65.77,145.15,356.07,Single-ply,SBD,F
Girls,75.07,4,Katie Jones,Bonham,70.94,138.35,68.04,138.35,344.73,Single-ply,SBD,F
Girls,75.07,5,Sarah Ortiz,Wichita Falls Hirschi,74.84,142.88,58.97,133.81,335.66,Single-ply,SBD,F
Girls,75.07,6,Destiny Neshyba,Princeton,72.03,131.54,61.23,136.08,328.85,Single-ply,SBD,F
Girls,75.07,7,Natalia Cox,Melissa,68.49,136.08,68.04,117.93,322.05,Single-ply,SBD,F
Girls,75.07,8,Angel Beavers,Mineral Wells,71.76,138.35,58.97,124.74,322.05,Single-ply,SBD,F
Girls,75.07,9,Hannah Hacker,Sanger,68.95,136.08,56.7,124.74,317.51,Single-ply,SBD,F
Girls,75.07,10,Ashley Tice,Princeton,67.68,95.25,77.11,124.74,297.1,Single-ply,SBD,F
Girls,75.07,11,Marissa Manuel,Iowa Park,71.67,113.4,58.97,117.93,290.3,Single-ply,SBD,F
Girls,75.07,DQ,Jeannette Santos,Castleberry,70.85,131.54,,,,Single-ply,SBD,F
Girls,75.07,DQ,Sindi Ortiz,Bridgeport,75.02,154.22,65.77,133.81,,Single-ply,SBD,F
Girls,82.33,1,Macy Davis,Anna,77.66,174.63,102.06,140.61,417.3,Single-ply,SBD,F
Girls,82.33,2,Clarissa Torres,Springtown,80.38,172.37,83.91,131.54,387.82,Single-ply,SBD,F
Girls,82.33,3,Brianna Sims,Castleberry,76.84,140.61,81.65,156.49,378.75,Single-ply,SBD,F
Girls,82.33,4,FeKyra Wells,Anna,78.74,158.76,70.31,136.08,365.14,Single-ply,SBD,F
Girls,82.33,5,Sierra Kerr,Iowa Park,81.01,131.54,74.84,147.42,353.8,Single-ply,SBD,F
Girls,82.33,6,Carla Guerra,Princeton,80.38,127.01,74.84,140.61,342.46,Single-ply,SBD,F
Girls,82.33,7,Kallie Flowers,Gainesville,81.01,145.15,58.97,136.08,340.19,Single-ply,SBD,F
Girls,82.33,8,Ally Woodruff,Anna,78.2,131.54,65.77,140.61,337.93,Single-ply,SBD,F
Girls,82.33,9,Stefani Norton,Nevada Community,79.56,142.88,68.04,117.93,328.85,Single-ply,SBD,F
Girls,82.33,10,Kara Harper,Decatur,80.47,133.81,54.43,129.27,317.51,Single-ply,SBD,F
Girls,82.33,11,Yanelle Lopez,Kennedale,80.74,122.47,58.97,117.93,299.37,Single-ply,SBD,F
Girls,82.33,12,RayAnn Schooling,Decatur,81.47,113.4,61.23,120.2,294.84,Single-ply,SBD,F
Girls,82.33,DQ,Adriana Ramirez,Bridgeport,77.38,,,,,Single-ply,SBD,F
Girls,90.04,1,Vail Springer,Anna,85.09,195.04,131.54,140.61,467.2,Single-ply,SBD,F
Girls,90.04,2,Hailee Anderson,Anna,88.72,183.7,88.45,176.9,449.06,Single-ply,SBD,F
Girls,90.04,3,Micah Scobee,Iowa Park,87.27,136.08,70.31,133.81,340.19,Single-ply,SBD,F
Girls,90.04,4,Madison Mills,Argyle,85.73,124.74,65.77,140.61,331.12,Single-ply,SBD,F
Girls,90.04,5,Ali Dragoo,Graham,88.36,142.88,58.97,122.47,324.32,Single-ply,SBD,F
Girls,90.04,6,Korie O'Dell,Graham,85.18,129.27,56.7,122.47,308.44,Single-ply,SBD,F
Girls,90.04,7,Gloria Melendez,Graham,89.81,117.93,56.7,115.67,290.3,Single-ply,SBD,F
Girls,90.04,8,Molly Kay,Princeton,87.72,106.59,54.43,113.4,274.42,Single-ply,SBD,F
Girls,90.04,9,Lizeth Olmos,Bridgeport,88.72,106.59,58.97,106.59,272.16,Single-ply,SBD,F
Girls,90.04,10,Valerie McFarland,Mineral Wells,87.27,88.45,45.36,99.79,233.6,Single-ply,SBD,F
Girls,90.04,DQ,Amber Poole,Graham,85.5,104.33,47.63,,,Single-ply,SBD,F
Girls,90.04,DQ,Lupe Rodriquez,Gainesville,84.37,117.93,49.9,122.47,,Single-ply,SBD,F
Girls,90.04,DQ,Clarissa Rios,Sanger,87.82,154.22,,129.27,,Single-ply,SBD,F
Girls,100.02,1,Jazmine Kuper,Springtown,90.08,174.63,104.33,149.69,428.64,Single-ply,SBD,F
Girls,100.02,2,Alissa Boubel,Kennedale,95.07,158.76,79.38,161.03,399.16,Single-ply,SBD,F
Girls,100.02,3,Kayla Young,Princeton,90.45,154.22,92.99,149.69,396.89,Single-ply,SBD,F
Girls,100.02,4,Codie Fields,Graham,94.8,158.76,70.31,131.54,360.61,Single-ply,SBD,F
Girls,100.02,5,Stephanie Cruz,Springtown,94.71,158.76,70.31,124.74,353.8,Single-ply,SBD,F
Girls,100.02,6,Jacqulyn Fennel,Kennedale,97.61,151.95,79.38,122.47,353.8,Single-ply,SBD,F
Girls,100.02,7,Alicia Vazquez,Castleberry,93.26,120.2,68.04,142.88,331.12,Single-ply,SBD,F
Girls,100.02,8,Sophia Perez,Lake Worth,92.53,145.15,40.82,136.08,322.05,Single-ply,SBD,F
Girls,100.02,9,Madison Stout,Iowa Park,99.79,136.08,70.31,113.4,319.78,Single-ply,SBD,F
Girls,100.02,10,Celeste Sanchez,Castleberry,96.43,127.01,54.43,117.93,299.37,Single-ply,SBD,F
Girls,100.02,11,Eme Flores,Decatur,91.08,122.47,45.36,111.13,278.96,Single-ply,SBD,F
Girls,100.02,DQ,Destiny Estrada,Princeton,98.97,156.49,90.72,,,Single-ply,SBD,F
Girls,117.71,1,Priscilla Adejokun,Melissa,101.15,240.4,117.93,231.33,589.67,Single-ply,SBD,F
Girls,117.71,2,Erlyna Morgan,Kennedale,115.12,204.12,88.45,167.83,460.4,Single-ply,SBD,F
Girls,117.71,3,Nazaketh Montes,Springtown,111.31,195.04,108.86,147.42,451.32,Single-ply,SBD,F
Girls,117.71,4,Melissa Monjaraz,Bridgeport,107.86,138.35,70.31,129.27,337.93,Single-ply,SBD,F
Girls,117.71,5,Marissia Bias,Decatur,111.04,117.93,54.43,120.2,292.57,Single-ply,SBD,F
Girls,117.71,6,Angie Ferrer,Gainesville,100.15,120.2,43.09,127.01,290.3,Single-ply,SBD,F
Girls,117.71,7,Jhorden Tennyson,Carrollton Ranchview,109.13,90.72,56.7,129.27,276.69,Single-ply,SBD,F
Girls,117.71,8,Annie Slavings,Graham,109.77,111.13,58.97,102.06,272.16,Single-ply,SBD,F
Girls,117.71,9,Zaundra Bershell,Aubrey,116.21,99.79,70.31,88.45,258.55,Single-ply,SBD,F
Girls,117.71+,1,Ashley Enriquez-Castro,Anna,125.83,226.8,88.45,149.69,464.93,Single-ply,SBD,F
Girls,117.71+,2,Tori Scott,Gainesville,136.98,195.04,95.25,149.69,439.98,Single-ply,SBD,F
Girls,117.71+,3,Kayshya Caffee,Carrollton Ranchview,147.33,124.74,74.84,170.1,369.68,Single-ply,SBD,F
Girls,117.71+,4,Ayla Jordan,Iowa Park,168.96,147.42,79.38,113.4,340.19,Single-ply,SBD,F
Girls,117.71+,DQ,Tess Hickey,Sanger,125.74,201.85,106.59,,,Single-ply,SBD,F
