Name,BirthDate,Country,Sex,Equipment,Division,BodyweightKg,WeightClassKg,Squat1Kg,Squat2Kg,Squat3Kg,Best3SquatKg,Bench1Kg,Bench2Kg,Bench3Kg,Best3BenchKg,Deadlift1Kg,Deadlift2Kg,Deadlift3Kg,Best3DeadliftKg,TotalKg,Place,Event
Hannah Beaven,,Scotland,F,Raw,F-C-Open,45.9,47,107.5,115,-117.5,115,52.5,57.5,60,60,137.5,146,150,150,325,1,SBD
Joy Nnamani,,England,F,Raw,F-C-Open,56.1,57,135,142.5,150,150,77.5,82.5,-85,82.5,170,180,185,185,417.5,1,SBD
Helen Hughes #1,,England,F,Raw,F-C-Open,55.9,57,110,117.5,-122.5,117.5,75,80,-82.5,80,135,145,150,150,347.5,2,SBD
Julie Kearney,,N.Ireland,F,Raw,F-C-Open,56.5,57,95,100,102.5,102.5,60,65,-67.5,65,120,130,-137.5,130,297.5,1,SBD
Alison Drysdale,,N.Ireland,F,Single-ply,F-E-Open,55.5,57,75,85,97.5,97.5,50,52.5,-57.5,52.5,105,115,-125,115,265,1,SBD
Faye Jordan,,England,F,Single-ply,F-E-Open,61.4,63,125,130,137.5,137.5,80,92.5,100,100,140,145,-150,145,382.5,1,SBD
Shelley Passmore,,Scotland,F,Single-ply,F-E-Open,61.3,63,-147.5,-147.5,147.5,147.5,92.5,-95,-95,92.5,132.5,137.5,-140,137.5,377.5,1,SBD
Lauren Elder,,N.Ireland,F,Raw,F-C-Open,61.7,63,110,117.5,-122.5,117.5,55,-57.5,-57.5,55,145,155,-162.5,155,327.5,1,SBD
Leigh-Ann McQuillan,,N.Ireland,F,Single-ply,F-E-Open,60,63,102.5,107.5,112.5,112.5,52.5,55,-57.5,55,130,145,150,150,317.5,1,SBD
Tasmin Campbell,,Scotland,F,Raw,F-C-Open,71.4,72,140,147.5,150,150,90,-95,-95,90,170,180,-185,180,420,1,SBD
Sophie Barringer,,Scotland,F,Single-ply,F-E-Open,71.5,72,125,135,142.5,142.5,60,65,67.5,67.5,155,170,177.5,177.5,387.5,1,SBD
Stephanie Pike,,England,F,Single-ply,F-E-Open,63.3,72,125,-130,132.5,132.5,67.5,-70,-70,67.5,182.5,-195,-195,182.5,382.5,1,SBD
Melanie Stewart #2,,N.Ireland,F,Raw,F-C-Open,67.2,72,-110,115,122.5,122.5,60,67.5,-72.5,67.5,150,160,165,165,355,1,SBD
Victoria Eades,,Wales,F,Raw,F-C-Open,71.8,72,122.5,130,-135,130,60,-62.5,-62.5,60,135,147.5,155,155,345,1,SBD
Caroline Shearer,,Wales,F,Raw,F-C-Open,63.8,72,115,120,125,125,50,-55,,50,130,140,145,145,320,2,SBD
Lauren Evans,,Wales,F,Raw,F-C-Open,68.4,72,100,110,120,120,47.5,52.5,-57.5,52.5,65,85,105,105,277.5,3,SBD
Deirdre Fenlon,,England,F,Raw,F-C-Open,83.6,84,160,170,180.5,180.5,75,80,-85,80,180,195,-205,195,455.5,1,SBD
Wendy MacFarlane,,Scotland,F,Raw,F-C-Open,83.5,84,150,160,165,165,80,82.5,85,85,160,170,175,175,425,1,SBD
Lucy Cohen,,Wales,F,Single-ply,F-E-Open,73.1,84,-147.5,155,-162.5,155,87.5,95,100,100,130,145,157.5,157.5,412.5,1,SBD
Claire Tocher,,Scotland,F,Single-ply,F-E-Open,80.5,84,135,-142.5,145,145,80,-85,87.5,87.5,162.5,170,177.5,177.5,410,1,SBD
Stephanie Fleming,,Wales,F,Single-ply,F-E-Open,74.4,84,127.5,132.5,135,135,67.5,70,-72.5,70,150,-160,160,160,365,2,SBD
Lottie Hall #1,,England,F,Single-ply,F-E-Open,75,84,115,-122.5,122.5,122.5,55,-60,-60,55,125,130,-135,130,307.5,1,SBD
Tracy O'Callaghan,,Wales,F,Single-ply,F-E-Open,97.2,84+,165,-175,175,175,75,80,82.5,82.5,175,-185,187.5,187.5,445,1,SBD
Libby Blair,,N.Ireland,F,Raw,F-C-Open,113.3,84+,120,130,-140,130,62.5,67.5,70,70,160,170,175,175,375,1,SBD
Krzysztof Bracha,,Scotland,M,Raw,M-C-Open,63.5,66,175,185,190,190,105,110,115,115,200,220,230,230,535,1,SBD
Jacob Downes,,Wales,M,Raw,M-C-Open,63.8,66,150,162.5,167.5,167.5,107.5,115,120,120,200,217.5,232.5,232.5,520,1,SBD
Greig Murray,,N.Ireland,M,Raw,M-C-Open,65.8,66,150,160,165,165,115,-122.5,-122.5,115,210,220,230,230,510,1,SBD
Oli Clarke,,England,M,Single-ply,M-E-Open,69.4,74,165,170,175,175,107.5,112.5,117.5,117.5,207.5,217.5,222.5,222.5,515,1,SBD
Owen Hubbard,,Wales,M,Raw,M-C-Open,82.9,83,-252.5,255,275,275,195,205,-212.5,205,260,280,-297.5,280,760,1,SBD
Luke Rogers #1,,England,M,Single-ply,M-E-Open,76.7,83,217.5,230,-240,230,122.5,127.5,132.5,132.5,245,260,270,270,632.5,1,SBD
Jac Lewis,,Wales,M,Raw,M-C-Open,82.3,83,205,215,222.5,222.5,152.5,162.5,-165,162.5,222.5,237.5,245,245,630,1,SBD
Dean Robertson,,Scotland,M,Single-ply,M-E-Open,80.7,83,190,205,210,210,135,150,-155,150,240,255,260,260,620,1,SBD
Lawrie Marshall,,Scotland,M,Raw,M-C-Open,79.3,83,190,210,-215,210,125,132.5,135,135,245,255,260,260,605,1,SBD
Jeremy Coles,,Scotland,M,Raw,M-C-Open,79.1,83,-205,205,220,220,125,135,-145,135,235,245,-252.5,245,600,2,SBD
Daniel Potter,,England,M,Raw,M-C-Open,78.4,83,180,-190,-195,180,130,137.5,145,145,225,235,242.5,242.5,567.5,1,SBD
George Millar,,N.Ireland,M,Single-ply,M-E-Open,82.1,83,185,195,205,205,125,132.5,-137.5,132.5,215,-230,,215,552.5,1,SBD
Ramone Burton,,England,M,Raw,M-C-Open,88,93,207.5,220,230,230,145,152.5,160,160,300,310,317.5,317.5,707.5,1,SBD
Danny Willgoss,,England,M,Single-ply,M-E-Open,88,93,-240,240,260,260,155,162.5,-167.5,162.5,-240,-240,240,240,662.5,1,SBD
Alex Thomson,,Scotland,M,Single-ply,M-E-Open,92,93,210,225,-232.5,225,145,155,-162.5,155,250,260,-270,260,640,1,SBD
Drew Lupton,,N.Ireland,M,Single-ply,M-E-Open,89.9,93,185,197.5,207.5,207.5,120,127.5,130,130,215,225,230,230,567.5,1,SBD
Sam Mitchell,,N.Ireland,M,Single-ply,M-E-Open,86.1,93,182.5,190,195,195,125,132.5,135,135,210,222.5,230,230,560,2,SBD
Robert Love,,Scotland,M,Single-ply,M-E-Open,93.2,105,-290,290,302.5,302.5,180,185,190,190,260,270,280,280,772.5,1,SBD
Michael Patterson,,England,M,Raw,M-C-Open,101.9,105,225,240,250,250,130,137.5,-145,137.5,240,260,-280,260,647.5,1,SBD
Michael Shaughnessy,,Wales,M,Raw,M-C-Open,101.3,105,170,180,-190,180,115,125,-132.5,125,210,220,-235,220,525,1,SBD
Colin Wright #1,,N.Ireland,M,Raw,M-C-Open,117.5,120,250,265,275,275,160,167.5,172.5,172.5,275,290,-305,290,737.5,1,SBD
Jordan Walters,,Wales,M,Single-ply,M-E-Open,105.1,120,230,247.5,262.5,262.5,145,155,,155,240,-260,260,260,677.5,1,SBD
Robert Newman,,N.Ireland,M,Raw,M-C-Open,135.4,120+,-230,237.5,250,250,150,162.5,172.5,172.5,250,262.5,270,270,692.5,1,SBD
Dylan Davies,,Wales,M,Single-ply,M-E-Open,124.1,120+,230,240,-250,240,160,170,-180,170,245,255,-260,255,665,1,SBD
