Name,Team,Division,BodyweightKg,WeightClassKg,Squat1Kg,Squat2Kg,Squat3Kg,Best3SquatKg,Bench1Kg,Bench2Kg,Bench3Kg,Best3BenchKg,Deadlift1Kg,Deadlift2Kg,Deadlift3Kg,Best3DeadliftKg,TotalKg,Event,Place,Equipment,Sex,BirthDate
Niamh Underhill,NM,F-C-U23,69.2,72,82.5,87.5,92.5,92.5,42.5,47.5,50,50,92.5,100,105,105,247.5,SBD,1,Raw,F,
Suzanne Dakin,NM,F-C-Open,55.6,57,92.5,97.5,102.5,102.5,50,55,-57.5,55,150,157.5,160,160,317.5,SBD,1,Raw,F,
Mia Tavinor,NM,F-C-Open,55.2,57,-95,95,-100,95,40,-45,,40,95,100,-105,100,235,SBD,2,Raw,F,
Lucy Massey,NM,F-C-Open,62.5,63,115,120,122.5,122.5,72.5,75,-77.5,75,-135,135,,135,332.5,SBD,1,Raw,F,
Hayley Gamblin,NM,F-C-Open,61.5,63,95,102.5,-110,102.5,65,-70,-70,65,140,150,-155,150,317.5,SBD,2,Raw,F,
Cat Bryden,NM,F-C-Open,61.2,63,90,92.5,95,95,45,47.5,50,50,115,125,130,130,275,SBD,3,Raw,F,
Rachel Hyatt,NM,F-C-Open,61.8,63,90,95,100,100,45,50,52.5,52.5,112.5,117.5,120,120,272.5,SBD,4,Raw,F,
Naomi Hollands,NM,F-C-Open,69.8,72,105,112.5,-117.5,112.5,55,57.5,-60,57.5,160,,,160,330,SBD,1,Raw,F,
Linda Reinvalde,NM,F-C-Open,69.4,72,90,-97.5,-97.5,90,45,50,-52.5,50,100,105,-110,105,245,SBD,2,Raw,F,
Rachel Height,NM,F-C-Open,66.9,72,65,70,-75,70,32.5,35,37.5,37.5,97.5,102.5,107.5,107.5,215,SBD,3,Raw,F,
Sadie Hurst,NM,F-C-Open,77.7,84,115,125,-132.5,125,55,60,65,65,135,145,152.5,152.5,342.5,SBD,1,Raw,F,
Frances Ann Keane,NM,F-C-Open,81.4,84,95,-97.5,100,100,50,52.5,-55,52.5,120,125,130,130,282.5,SBD,2,Raw,F,
Emma Louise Kilcourse,NM,F-C-Open,78.4,84,87.5,95,100,100,40,45,47.5,47.5,112.5,120,125,125,272.5,SBD,3,Raw,F,
Helen Smith,NM,F-C-Open,80.7,84,65,67.5,70,70,40,42.5,45,45,102.5,110,115,115,230,SBD,4,Raw,F,
Chloe Ann Waby,NM,F-C-Open,84,84,,,,,,,,,,,,,,SBD,DQ,Raw,F,
Tyla Hall,NM,F-C-Open,96.5,84+,92.5,-97.5,97.5,97.5,47.5,50,52.5,52.5,120,125,-130,125,275,SBD,1,Raw,F,
Krystel Franks,NM,F-C-Open,92.5,84+,-77.5,85,90,90,55,60,62.5,62.5,90,95,100,100,252.5,SBD,2,Raw,F,
Faye Gardner,NM,F-C-Open,90,84+,,,,,,,,,,,,,,SBD,DQ,Raw,F,
Rhoda Irving,NM,F-C-Open,90,84+,,,,,,,,,,,,,,SBD,DQ,Raw,F,
Kathleen Bailey,NM,F-C-M1,69.4,72,105,110,-112.5,110,62.5,-67.5,-67.5,62.5,142.5,150,155,155,327.5,SBD,1,Raw,F,
Jodi Weaver,NM,F-C-M1,81.9,84,127.5,132.5,135,135,60,65,-70,65,125,132.5,135,135,335,SBD,1,Raw,F,
Catherine Woodward,NM,F-C-M1,79.2,84,120,122.5,125,125,67.5,70,72.5,72.5,117.5,125,130,130,327.5,SBD,2,Raw,F,1979-01-10
Nicola Maycock,NM,F-C-M1,82.8,84,87.5,92.5,95,95,47.5,52.5,55,55,105,115,120,120,270,SBD,3,Raw,F,
Paula Craven,NM,F-C-M1,103.3,84+,-105,110,-115,110,60,65,67.5,67.5,120,130,140,140,317.5,SBD,1,Raw,F,
Nicola Hill,NM,F-C-M1,105.9,84+,85,95,100,100,50,52.5,55,55,120,130,135,135,290,SBD,2,Raw,F,
Shelley Meacken,NM,F-C-M1,93.2,84+,90,92.5,95,95,50,52.5,55,55,115,-117.5,120,120,270,SBD,3,Raw,F,
Angela Houldershaw,NM,F-C-M2,62.9,63,82.5,-90,90,90,42.5,45,47.5,47.5,100,110,,110,247.5,SBD,1,Raw,F,
Tracey Burn,NM,F-C-M2,58.9,63,35,40,45,45,27.5,30,32.5,32.5,90,100,,100,177.5,SBD,2,Raw,F,
Julie Rose,NM,F-C-M2,71.4,72,87.5,92.5,-95,92.5,47.5,50,52.5,52.5,100,105,-107.5,105,250,SBD,1,Raw,F,
Sarah Jane Spencer,NM,F-C-M2,63.9,72,50,55,57.5,57.5,30,32.5,35,35,75,80,82.5,82.5,175,SBD,2,Raw,F,
Jo Parry,NM,F-C-M2,77.7,84,60,70,75,75,40,45,,45,100,110,117.5,117.5,237.5,SBD,1,Raw,F,
Karen Simpson,NM,F-C-M2,105.9,84+,80,85,90,90,40,42.5,45,45,105,110,115,115,250,SBD,1,Raw,F,
Ammar Farook,NM,M-C-U23,73.3,74,172.5,182.5,190,190,125,130,135,135,197.5,207.5,-217.5,207.5,532.5,SBD,1,Raw,M,
Coby Allen,NM,M-C-U23,82,83,165,177.5,187.5,187.5,100,107.5,115,115,200,215,227.5,227.5,530,SBD,1,Raw,M,
Ben Pape,NM,M-C-U23,92.8,93,245,262.5,269,269,142.5,150,155,155,272.5,290.5,-301,290.5,714.5,SBD,1,Raw,M,
Sam Hodgett,NM,M-C-U23,103,105,190,200,212.5,212.5,125,132.5,140,140,200,220,235,235,587.5,SBD,1,Raw,M,
Joseph Mitchell,NM,M-C-U23,102.7,105,190,-195,195,195,120,122.5,125,125,220,225,230,230,550,SBD,2,Raw,M,
Gabriel Balandis,NM,M-C-U23,111.5,120,225,232.5,-240,232.5,150,157.5,160,160,260,275,-282.5,275,667.5,SBD,1,Raw,M,
William McDonald,NM,M-C-Open,64.8,66,140,150,-160,150,100,113,-115,113,160,170,-200,170,433,SBD,1,Raw,M,
Ben Poole,NM,M-C-Open,73.3,74,187.5,197.5,205,205,112.5,117.5,-125,117.5,205,215,225,225,547.5,SBD,1,Raw,M,
Alex Keyworth,NM,M-C-Open,73.6,74,185,190,195,195,137.5,-142.5,142.5,142.5,190,200,210,210,547.5,SBD,2,Raw,M,
Aodhan Phillips-Lees,NM,M-C-Open,73.8,74,175,190,202.5,202.5,120,125,-127.5,125,170,190,202.5,202.5,530,SBD,3,Raw,M,
Aaron Bohlman,NM,M-C-Open,81.3,83,140,150,-152.5,150,75,77.5,82.5,82.5,180,190,-192.5,190,422.5,SBD,1,Raw,M,
Joe Evans,NM,M-C-Open,81,83,110,120,130,130,-77.5,77.5,-80,77.5,110,115,122.5,122.5,330,SBD,2,Raw,M,
Will Simpson,NM,M-C-Open,86.5,93,230,242.5,250,250,145,155,160,160,215,232.5,242.5,242.5,652.5,SBD,1,Raw,M,
Scott Sharp,NM,M-C-Open,91.2,93,180,190,-195,190,-115,115,-120,115,180,190,200,200,505,SBD,2,Raw,M,
Suraj Jethwa,NM,M-C-Open,90.5,93,165,175,182.5,182.5,115,122.5,-127.5,122.5,180,-190,190,190,495,SBD,3,Raw,M,
Michael Pennington,NM,M-C-Open,104.2,105,220,,,220,180,200,,200,-290,290,,290,710,SBD,1,Raw,M,
Martyn Brown,NM,M-C-Open,101.4,105,230,245,255,255,145,152.5,160,160,235,250,270,270,685,SBD,2,Raw,M,
Alec Hewstone,NM,M-C-Open,112.8,120,240,260,275,275,170,177.5,-180,177.5,220,,,220,672.5,SBD,1,Raw,M,
Graham McGuiness,NM,M-C-Open,117.1,120,190,197.5,205,205,120,127.5,132.5,132.5,210,222.5,-235,222.5,560,SBD,2,Raw,M,
Christopher Gibbons,NM,M-C-Open,115.1,120,180,200,-205,200,120,130,-137.5,130,200,215,,215,545,SBD,3,Raw,M,
Shaun Haynes,NM,M-C-M1,82.2,83,140,160,180,180,100,120,130,130,180,200,220,220,530,SBD,1,Raw,M,
Peter Lowther,NM,M-C-M1,92.5,93,175,185,195,195,120,130,135,135,190,200,210,210,540,SBD,1,Raw,M,
Gavin MacDonald,NM,M-C-M1,123.5,120+,-210,220,-230,220,145,155,-162.5,155,210,220,-230,220,595,SBD,1,Raw,M,
Nigel Gillis,NM,M-C-M2,69.4,74,165,180,190,190,102.5,110,-115,110,170,185,195,195,495,SBD,1,Raw,M,
Paul Leatherland,NM,M-C-M2,90.9,93,100,-110,110,110,80,82.5,85,85,-150,155,160,160,355,SBD,1,Raw,M,
Dave Turner,NM,M-C-M3,105,105,-150,150,160,160,80,90,,90,150,165,,165,415,SBD,1,Raw,M,
Roger Powell,NM,M-C-M5,64.5,66,70,80,90,90,50,55,,55,120,130,135,135,280,SBD,1,Raw,M,
