Division,WeightClassKg,Place,Name,Team,BodyweightKg,Best3SquatKg,Best3BenchKg,Best3DeadliftKg,TotalKg,Equipment,Event,Sex
Girls,44.23,1,Alexa Sindelar,Perrin-Whitt,43.82,68.04,36.29,81.65,185.97,Single-ply,SBD,F
Girls,44.23,DQ,Alisha Torres,Castleberry,44,61.23,,,,Single-ply,SBD,F
Girls,44.23,DQ,Suzell Garcia,Castleberry,42.27,63.5,,,,Single-ply,SBD,F
Girls,47.85,1,Jordyn Stout-Meek,Whitesboro,47.81,70.31,31.75,79.38,181.44,Single-ply,SBD,F
Girls,47.85,2,Breanna Rehark,Bridgeport,47.54,63.5,29.48,74.84,167.83,Single-ply,SBD,F
Girls,47.85,3,Kenya Gomez,Bridgeport,44.72,61.23,29.48,74.84,165.56,Single-ply,SBD,F
Girls,47.85,4,Judith Portales,Lake Worth,45.27,52.16,29.48,61.23,142.88,Single-ply,SBD,F
Girls,47.85,5,Kalyn Thomas,Kennedale,46.72,24.95,15.88,36.29,77.11,Single-ply,SBD,F
Girls,47.85,DQ,Carolina Dominguez,Castleberry,45.72,,,,,Single-ply,SBD,F
Girls,51.94,1,Mady Taylor,Bridgeport,50.53,74.84,31.75,95.25,201.85,Single-ply,SBD,F
Girls,51.94,2,Brianna Bryant,Perrin-Whitt,51.44,74.84,29.48,86.18,190.51,Single-ply,SBD,F
Girls,51.94,3,Emily Wall,Nocona,51.17,65.77,38.56,81.65,185.97,Single-ply,SBD,F
Girls,51.94,4,Yorleny Macias,Bridgeport,48.17,61.23,29.48,90.72,181.44,Single-ply,SBD,F
Girls,51.94,5,Giselle Rea,Lake Worth,51.8,61.23,24.95,58.97,145.15,Single-ply,SBD,F
Girls,56.02,1,Shelimar Neris Santiago,Burkburnett,55.97,113.4,54.43,122.47,290.3,Single-ply,SBD,F
Girls,56.02,2,Camry Larriviere,Lake Worth,55.7,113.4,43.09,117.93,274.42,Single-ply,SBD,F
Girls,56.02,3,Samantha DeFord,Bowie,54.34,102.06,45.36,106.59,254.01,Single-ply,SBD,F
Girls,56.02,4,Sofie Butler,Bowie,53.52,97.52,58.97,86.18,242.67,Single-ply,SBD,F
Girls,56.02,5,Jenny Martinez,Chico,54.16,79.38,45.36,104.33,229.06,Single-ply,SBD,F
Girls,56.02,6,Jordan Armstrong,Bridgeport,54.88,74.84,31.75,83.91,190.51,Single-ply,SBD,F
Girls,56.02,7,Rebecca Vela,Perrin-Whitt,53.8,70.31,31.75,83.91,185.97,Single-ply,SBD,F
Girls,56.02,8,Nicole Smith,Chico,52.8,61.23,31.75,79.38,172.37,Single-ply,SBD,F
Girls,56.02,9,Raven Brady,Kennedale,54.07,47.63,31.75,65.77,145.15,Single-ply,SBD,F
Girls,56.02,DQ,Daysi Villafranco,Castleberry,52.34,,,,,Single-ply,SBD,F
Girls,60.1,1,Carcyn Robertson,Bowie,58.97,120.2,54.43,124.74,299.37,Single-ply,SBD,F
Girls,60.1,2,Madison Metzler,Bowie,56.7,104.33,49.9,113.4,267.62,Single-ply,SBD,F
Girls,60.1,3,Emilee Newton,Bridgeport,60.06,99.79,45.36,102.06,247.21,Single-ply,SBD,F
Girls,60.1,4,Stefani Alvarado,Whitesboro,56.43,90.72,49.9,97.52,238.14,Single-ply,SBD,F
Girls,60.1,5,Mikenzi Swink,Boyd,58.42,90.72,34.02,102.06,226.8,Single-ply,SBD,F
Girls,60.1,6,Jasmine Brown,Perrin-Whitt,59.15,70.31,36.29,115.67,222.26,Single-ply,SBD,F
Girls,60.1,7,Paxton Booher,Kennedale,59.96,83.91,43.09,90.72,217.72,Single-ply,SBD,F
Girls,60.1,8,Claire Mounce,Perrin-Whitt,57.97,86.18,38.56,90.72,215.46,Single-ply,SBD,F
Girls,60.1,9,Darion Del Val,Castleberry,58.79,77.11,40.82,83.91,201.85,Single-ply,SBD,F
Girls,60.1,10,Hana Koiner,Krum,58.15,70.31,31.75,83.91,185.97,Single-ply,SBD,F
Girls,60.1,11,Jennifer Flores,Bridgeport,59.33,52.16,31.75,77.11,161.03,Single-ply,SBD,F
Girls,67.36,1,Kaylin Miller,Whitesboro,67.13,136.08,81.65,149.69,367.41,Single-ply,SBD,F
Girls,67.36,2,Jazmin Puryear,Lake Worth,62.78,136.08,61.23,149.69,347,Single-ply,SBD,F
Girls,67.36,3,Kylee Howard,Kennedale,67.13,120.2,61.23,136.08,317.51,Single-ply,SBD,F
Girls,67.36,4,Montana Holbach,Bowie,62.6,120.2,49.9,106.59,276.69,Single-ply,SBD,F
Girls,67.36,5,Jessica Vogel,Nocona,61.51,108.86,52.16,113.4,274.42,Single-ply,SBD,F
Girls,67.36,6,Ruth Mitchell #1,Kennedale,62.6,102.06,45.36,108.86,256.28,Single-ply,SBD,F
Girls,67.36,7,Julie Salazar,Bridgeport,64.86,104.33,58.97,90.72,254.01,Single-ply,SBD,F
Girls,67.36,8,Eliza Gilliam,Whitesboro,66.32,88.45,52.16,86.18,226.8,Single-ply,SBD,F
Girls,67.36,9,Shaye Freed,Bridgeport,60.87,86.18,34.02,99.79,219.99,Single-ply,SBD,F
Girls,67.36,10,Katlina Moore,Kennedale,63.14,83.91,31.75,97.52,213.19,Single-ply,SBD,F
Girls,67.36,11,Makinzee Thomas,Alvord,63.87,79.38,38.56,88.45,206.38,Single-ply,SBD,F
Girls,67.36,12,Deanna Hebert,Bridgeport,60.87,70.31,45.36,86.18,201.85,Single-ply,SBD,F
Girls,67.36,13,Kendra Smith,Bridgeport,63.59,81.65,43.09,77.11,201.85,Single-ply,SBD,F
Girls,67.36,14,Kasi Martinez,Bridgeport,67.31,63.5,38.56,86.18,188.24,Single-ply,SBD,F
Girls,67.36,15,Tristyn Gilcrease,Krum,64.77,68.04,34.02,81.65,183.7,Single-ply,SBD,F
Girls,67.36,DQ,Alejandra Medrano,Castleberry,62.05,99.79,,,,Single-ply,SBD,F
Girls,75.07,1,Lexi Towery,Nocona,70.4,124.74,56.7,131.54,312.98,Single-ply,SBD,F
Girls,75.07,2,Carrington Davis,Bowie,73.3,124.74,61.23,127.01,312.98,Single-ply,SBD,F
Girls,75.07,3,Ayesha Parr,Chico,69.76,104.33,63.5,131.54,299.37,Single-ply,SBD,F
Girls,75.07,4,Sindi Ortiz,Bridgeport,71.58,120.2,47.63,131.54,299.37,Single-ply,SBD,F
Girls,75.07,5,Celisia Bailey,Lake Worth,73.94,104.33,56.7,115.67,276.69,Single-ply,SBD,F
Girls,75.07,6,Makena Whaley,Lake Worth,69.22,106.59,54.43,104.33,265.35,Single-ply,SBD,F
Girls,75.07,7,Destiney Thompson,Whitesboro,69.94,90.72,49.9,120.2,260.82,Single-ply,SBD,F
Girls,75.07,8,Kaela Roberds,Alvord,74.84,102.06,47.63,99.79,249.48,Single-ply,SBD,F
Girls,75.07,9,Piper Welch,Krum,74.93,83.91,47.63,113.4,244.94,Single-ply,SBD,F
Girls,75.07,10,Kendall Daniel,Kennedale,70.76,92.99,47.63,102.06,242.67,Single-ply,SBD,F
Girls,75.07,11,Allie Blackmon,Burkburnett,69.67,95.25,43.09,97.52,235.87,Single-ply,SBD,F
Girls,75.07,12,Adriana Ramirez,Bridgeport,72.94,95.25,29.48,111.13,235.87,Single-ply,SBD,F
Girls,75.07,13,Kaleigh Cochran,Whitesboro,68.13,70.31,52.16,99.79,222.26,Single-ply,SBD,F
Girls,75.07,14,Kirbea Singleton,Perrin-Whitt,74.12,90.72,40.82,88.45,219.99,Single-ply,SBD,F
Girls,75.07,15,Ariana Crook,Lake Worth,73.03,74.84,31.75,99.79,206.38,Single-ply,SBD,F
Girls,82.33,1,Mikayla Morris,Whitesboro,79.2,151.95,88.45,174.63,415.04,Single-ply,SBD,F
Girls,82.33,2,Natalie Hofsiss,Alvord,79.56,129.27,61.23,145.15,335.66,Single-ply,SBD,F
Girls,82.33,3,Kaylen Jowitt,Whitesboro,80.29,117.93,70.31,133.81,322.05,Single-ply,SBD,F
Girls,82.33,4,Mylena Escudero,Bowie,81.1,131.54,56.7,131.54,319.78,Single-ply,SBD,F
Girls,82.33,5,Brianna Sims,Castleberry,81.1,122.47,56.7,133.81,312.98,Single-ply,SBD,F
Girls,82.33,6,Yanelle Lopez,Kennedale,75.66,102.06,47.63,104.33,254.01,Single-ply,SBD,F
Girls,82.33,7,Brooke Vidal,Chico,77.38,90.72,40.82,104.33,235.87,Single-ply,SBD,F
Girls,90.04,1,Taylor Brown #3,Whitesboro,85.37,136.08,70.31,129.27,335.66,Single-ply,SBD,F
Girls,90.04,2,Makayla Martin,Alvord,86.64,124.74,49.9,124.74,299.37,Single-ply,SBD,F
Girls,90.04,3,Alicia Vazquez,Castleberry,83.28,81.65,36.29,97.52,215.46,Single-ply,SBD,F
Girls,90.04,DQ,Analilia Ortiz,Castleberry,85,106.59,,,,Single-ply,SBD,F
Girls,100.02,1,Harley Drenner,Krum,98.43,133.81,52.16,124.74,310.71,Single-ply,SBD,F
Girls,100.02,2,Jacqulyn Fennel,Kennedale,91.72,97.52,61.23,117.93,276.69,Single-ply,SBD,F
Girls,100.02,3,Allison Ricketts,Alvord,97.98,90.72,52.16,108.86,251.74,Single-ply,SBD,F
Girls,100.02,4,Celeste Sanchez,Castleberry,96.52,86.18,43.09,108.86,238.14,Single-ply,SBD,F
Girls,100.02+,1,Erlyna Morgan,Kennedale,104.96,147.42,70.31,161.03,378.75,Single-ply,SBD,F
Girls,100.02+,2,Jessica Redwine,Chico,122.11,140.61,81.65,147.42,369.68,Single-ply,SBD,F
Girls,100.02+,3,Haylee McAdoo,Whitesboro,123.92,140.61,72.57,127.01,340.19,Single-ply,SBD,F
Girls,100.02+,4,Haley Roberds,Alvord,116.66,127.01,81.65,127.01,335.66,Single-ply,SBD,F
Girls,100.02+,5,Lindsey Cain,Whitesboro,129.55,90.72,81.65,122.47,294.84,Single-ply,SBD,F
