Place,Name,BodyweightKg,Best3SquatKg,Best3BenchKg,Deadlift2Kg,Deadlift3Kg,Best3DeadliftKg,TotalKg,WeightClassKg,Sex,CyrillicName,BirthYear,Event,Equipment,Division
1,Sergey Zhuravlev #1,52,225,112.5,,,210,547.5,52,M,Сергей Журавлев,1960,SBD,Single-ply,Open
2,Alexey Romanov,51.6,215,107.5,,,172.5,495,52,M,Алексей Романов,1981,SBD,Single-ply,Open
3,Aleksey Svistunov,51.88,185,107.5,,,182.5,475,52,M,Алексей Свистунов,1969,SBD,Single-ply,Open
4,Igor Artemyev,51.9,165,120,,,180,465,52,M,Игорь Артемьев,1971,SBD,Single-ply,Open
5,Sergey Skochek,51.3,172.5,110,,,180,462.5,52,M,Сергей Скочек,1983,SBD,Single-ply,Open
6,Ravil Kazakov,51.66,180,110,,,137.5,427.5,52,M,Равиль Казаков,1982,SBD,Single-ply,Open
DQ,Yuriy Elkin,52,,,,,,,52,M,Юрий Елькин,1981,SBD,Single-ply,Open
1,Konstantin Pavlov,55.74,252.5,172.5,215,220,220,645,56,M,Константин Павлов,1973,SBD,Single-ply,Open
2,Nikolay Asabin,55.82,230,137.5,,,207.5,575,56,M,Николай Асабин,1978,SBD,Single-ply,Open
3,Yaroslav Chopovskiy,55.36,225,110,,,220,555,56,M,Ярослав Чоповский,1962,SBD,Single-ply,Open
4,Vladimir Maliagov,56,220,125,,,192.5,537.5,56,M,Владимир Малягов,1977,SBD,Single-ply,Open
5,Pavel Chernikov,56,202.5,107.5,,,195,505,56,M,Павел Черников,1973,SBD,Single-ply,Open
6,Ruslan Azizov,55.74,190,110,,,190,490,56,M,Руслан Азизов,1976,SBD,Single-ply,Open
7,Vitaliy Borisov,56,180,100,,,170,450,56,M,Виталий Борисов,1984,SBD,Single-ply,Open
DQ,Dmitriy Panin,55.48,205,122.5,,,,,56,M,Дмитрий Панин,1980,SBD,Single-ply,Open
DQ,Oleg Artemyev,56,,,,,,,56,M,Олег Артемьев,1971,SBD,Single-ply,Open
1,Mikhail Andryukhin,59.95,260.5,142.5,,,265,668,60,M,Михаил Андрюхин,1970,SBD,Single-ply,Open
2,Anatoliy Proskurin,60,245,132.5,,,247.5,625,60,M,Анатолий Проскурин,1972,SBD,Single-ply,Open
3,Andrey Zvyagintsev,59.8,242.5,135,,,245,622.5,60,M,Андрей Звягинцев,1980,SBD,Single-ply,Open
4,Fanil Mukhamatyanov,59.9,245,180,,,195,620,60,M,Фаниль Мухаматьянов,1972,SBD,Single-ply,Open
5,Ilya Kokorev,59.5,202.5,125,,,230,557.5,60,M,Илья Кокорев,1973,SBD,Single-ply,Open
6,Maxim Nurutdinov,60,235,120,,,200,555,60,M,Максим Нурутдинов,1982,SBD,Single-ply,Open
7,Denis Kabanov,59.6,215,125,,,200,540,60,M,Денис Кабанов,1983,SBD,Single-ply,Open
8,Aleksey Isupov,58.9,175,105,,,210,490,60,M,Алексей Исупов,1978,SBD,Single-ply,Open
1,Evgeniy Dolgov,67.5,275,165,,,260,700,67.5,M,Евгений Долгов,1976,SBD,Single-ply,Open
2,Igor Muler,66.85,277.5,140,,,270,687.5,67.5,M,Игорь Мулер,1969,SBD,Single-ply,Open
3,Ruslan Araslanov,67.5,240,175,,,262.5,677.5,67.5,M,Руслан Арасланов,1976,SBD,Single-ply,Open
4,Anatoly Zvyagintsev,67.45,247.5,180,,,237.5,665,67.5,M,Анатолий Звягинцев,1978,SBD,Single-ply,Open
5,Oleg Vasilyev #1,67.1,250,150,,,240,640,67.5,M,Олег Васильєв,1974,SBD,Single-ply,Open
6,Greg Simmons #2,67.5,230,147.5,,,250,627.5,67.5,M,,1965,SBD,Single-ply,Open
7,Anatoliy Glazunov,66.55,240,160,,,220,620,67.5,M,Анатолий Глазунов,1974,SBD,Single-ply,Open
8,Brandon Green,66.2,227.5,120,,,262.5,610,67.5,M,,1972,SBD,Single-ply,Open
DQ,Alexey Sidorov,67.3,,,,,,,67.5,M,Алексей Сидоров,1974,SBD,Single-ply,Open
DQ,Aleksandr Marenok,66.4,250,125,,,,,67.5,M,Александр Маренок,1976,SBD,Single-ply,Open
1,Viktor Baranov,74.2,317.5,180,,,307.5,805,75,M,Виктор Баранов,1967,SBD,Single-ply,Open
2,Viktor Furazhkin,74.95,315,190,,,300,805,75,M,Виктор Фуражкин,1969,SBD,Single-ply,Open
3,Ruslan Vostrikov,75,300,177.5,,,290,767.5,75,M,Руслан Востриков,1979,SBD,Single-ply,Open
4,Vladimir Sokolov,74.3,295,177.5,,,285,757.5,75,M,Владимир Соколов,1976,SBD,Single-ply,Open
5,Ivan Kallya,75,252.5,162.5,,,295,710,75,M,Иван Калля,1962,SBD,Single-ply,Open
6,Sergey Koshkin,74.5,270,180,,,250,700,75,M,Сергей Кошкин,1971,SBD,Single-ply,Open
7,Leonid Baev,74.2,250,180,,,250,680,75,M,Леонид Баев,1979,SBD,Single-ply,Open
8,Stanislav Skobelkin,75,240,155,,,280,675,75,M,Станислав Скобелкин,1977,SBD,Single-ply,Open
9,Andrey Yakovlev,74.6,250,147.5,,,270,667.5,75,M,Андрей Яковлев,1979,SBD,Single-ply,Open
10,Aleksey Neveykov,74.9,255,192.5,,,220,667.5,75,M,Алексей Невейков,1966,SBD,Single-ply,Open
11,Vladimir Luschay,74.4,250,147.5,,,250,647.5,75,M,Владимир Лущай,1975,SBD,Single-ply,Open
12,Dmitriy Ogienko,75,245,175,,,220,640,75,M,Дмитрий Огиенко,1974,SBD,Single-ply,Open
13,Igor Begdairov,73.7,215,140,,,235,590,75,M,Игорь Бегдаиров,1982,SBD,Single-ply,Open
DQ,Sergey Ushakov,74.9,,,,,,,75,M,Сергей Ушаков,1974,SBD,Single-ply,Open
1,Sergey Mor,82.45,317.5,210,,,315,842.5,82.5,M,Сергей Мор,1969,SBD,Single-ply,Open
2,Sergey Gordeev,81.1,320,200,,,312.5,832.5,82.5,M,Сергей Гордеев,1976,SBD,Single-ply,Open
3,Alexey Kharauzov,82.5,305,205,,,290,800,82.5,M,Алексей Хараузов,1973,SBD,Single-ply,Open
4,Vadim Usanov,81.8,260,190,,,290,740,82.5,M,Вадим Усанов,1977,SBD,Single-ply,Open
5,Vladimir Grishaev,81.25,305,187.5,,,240,732.5,82.5,M,Владимир Гришаев,1981,SBD,Single-ply,Open
6,Anton Nikitin,82.15,270,200,,,260,730,82.5,M,Антон Никитин,1971,SBD,Single-ply,Open
7,Yuriy Kuznetsov,82.1,270,155,,,282.5,707.5,82.5,M,Юрий Кузнецов,1971,SBD,Single-ply,Open
8,Aleksandr Gavrilov,80.7,240,165,,,255,660,82.5,M,Александр Гаврилов,1982,SBD,Single-ply,Open
DQ,Ramil Shafeev,79.65,,,,,,,82.5,M,Рамиль Шафеев,1969,SBD,Single-ply,Open
DQ,Stepan Budarin,80.3,260,210,,,,,82.5,M,Степан Бударин,1971,SBD,Single-ply,Open
DQ,Roman Dementev,81.65,,,,,,,82.5,M,Роман Дементьев,1982,SBD,Single-ply,Open
DQ,Igor Shestakov,82.4,,,,,,,82.5,M,Игорь Шестаков,1969,SBD,Single-ply,Open
DQ,Aleksey Zvarykin,81.5,,,,,,,82.5,M,Алексей Зварыкин,1979,SBD,Single-ply,Open
DQ,Aleksandr Kokornov,80,,,,,,,82.5,M,Александр Кокорнов,1964,SBD,Single-ply,Open
1,Andrey Tarasenko,89.8,345,235,,,315,895,90,M,Андрей Тарасенко,1975,SBD,Single-ply,Open
2,Nikolai Kurakin,89.7,300,195,,,300,795,90,M,Николай Куракин,1967,SBD,Single-ply,Open
3,Konstantin Otavin,90,302.5,202.5,,,290,795,90,M,Константин Отавин,1973,SBD,Single-ply,Open
4,Anton Bogdanov,89.9,300,202.5,,,290,792.5,90,M,Антон Богданов,1973,SBD,Single-ply,Open
5,Dmitriy Serikov,87.55,310,175,,,285,770,90,M,Дмитрий Сериков,1977,SBD,Single-ply,Open
6,Vladimir Kanyukov,89.75,290,197.5,,,280,767.5,90,M,Владимир Канюков,1967,SBD,Single-ply,Open
7,Aleksey Lysenko,88.95,290,170,,,300,760,90,M,Алексей Лысенко,1974,SBD,Single-ply,Open
8,Pavel Zverev,88.5,270,200,,,270,740,90,M,Павел Зверев,1975,SBD,Single-ply,Open
9,Nikolay Ilyichev,89.45,270,177.5,,,290,737.5,90,M,Николай Ильичёв,1977,SBD,Single-ply,Open
10,Dzhumshud Kurbanov,89.65,280,175,,,270,725,90,M,Джумшуд Курбанов,1961,SBD,Single-ply,Open
11,Aleksey Ponukaev,89.35,240,170,,,240,650,90,M,Алексей Понукаев,1973,SBD,Single-ply,Open
DQ,Pavel Mitin,89.3,280,,,,,,90,M,Павел Митин,1969,SBD,Single-ply,Open
DQ,Sergey Zalozhkov,90,300,187.5,,,,,90,M,Сергей Заложков,1974,SBD,Single-ply,Open
1,Galim Ismagilov,97.35,330,215,,,342.5,887.5,100,M,Галим Исмагилов,1975,SBD,Single-ply,Open
2,Yuriy Fedorenko,98.05,340,210,,,335,885,100,M,Юрий Федоренко,1974,SBD,Single-ply,Open
3,Andrey Babikov,99.55,357.5,205,,,322.5,885,100,M,Андрей Бабиков,1971,SBD,Single-ply,Open
4,Alan Gergiev,99.1,320,227.5,,,330,877.5,100,M,Алан Гергиев,1972,SBD,Single-ply,Open
5,Evgeniy Grachev,99.6,350,190,,,332.5,872.5,100,M,Евгений Грачев,1973,SBD,Single-ply,Open
6,Dmitriy Fedenko,92.85,320,220,,,330,870,100,M,Дмитрий Феденко,1975,SBD,Single-ply,Open
7,Aleksandr Ushakov,98.65,350,200,,,320,870,100,M,Александр Ушаков,1979,SBD,Single-ply,Open
8,Maksim Chernomorets,99.2,340,207.5,,,310,857.5,100,M,Максим Черноморец,1977,SBD,Single-ply,Open
9,Sergei Maximov,98.45,305,215,,,332.5,852.5,100,M,Сергей Максимов,1961,SBD,Single-ply,Open
10,Dmitriy Silyuntsev,100,345,192.5,,,307.5,845,100,M,Дмитрий Силюнцев,1974,SBD,Single-ply,Open
11,Dmitriy Ryskalenko,95.85,300,215,,,290,805,100,M,Дмитрий Рыскаленко,1974,SBD,Single-ply,Open
12,Aleksey Kozlov #1,97.35,300,205,,,300,805,100,M,Алексей Козлов,1970,SBD,Single-ply,Open
13,Vladimir Vargin,99.4,310,212.5,,,265,787.5,100,M,Владимир Варгин,1963,SBD,Single-ply,Open
14,Vyacheslav Zelenov,99.85,315,195,,,270,780,100,M,Вячеслав Зеленов,1965,SBD,Single-ply,Open
15,Vyacheslav Korchin,99.1,295,200,,,270,765,100,M,Вячеслав Корчин,1976,SBD,Single-ply,Open
16,Komlanvi Kapu,99.35,285,185,,,265,735,100,M,Комланви Капу,1968,SBD,Single-ply,Open
DQ,Anton Sinitskiy,97.65,320,205,,,,,100,M,Антон Синицкий,1975,SBD,Single-ply,Open
DQ,Aleksey Pominov,100,310,,,,,,100,M,Алексей Поминов,1978,SBD,Single-ply,Open
DQ,Yuriy Ustinov,97.3,,,,,,,100,M,Юрий Устинов,1975,SBD,Single-ply,Open
DD,Viktor Smischenko,99.95,340,237.5,,,330,,100,M,Виктор Смищенко,1963,SBD,Single-ply,Open
1,Alexey Gankov,110,350,235,,,357.5,942.5,110,M,Алексей Ганьков,1970,SBD,Single-ply,Open
2,Valentin Dedyulia,108.65,365,225,,,340,930,110,M,Валентин Дедюля,1977,SBD,Single-ply,Open
3,Yevgeny Birun,109.65,362.5,210,,,357.5,930,110,M,Евгений Бирун,1973,SBD,Single-ply,Open
4,Oleg Demyakhin,109.15,360,215,,,345,920,110,M,Олег Демяхин,1974,SBD,Single-ply,Open
5,Leonid Akimov,105.15,330,205,,,350,885,110,M,Леонид Акимов,1975,SBD,Single-ply,Open
6,Gennadiy Samchuk,108.05,310,242.5,,,302.5,855,110,M,Геннадий Самчук,1966,SBD,Single-ply,Open
7,Maksim Novikov,109.05,320,200,,,335,855,110,M,Максим Новиков,1976,SBD,Single-ply,Open
8,Aleksey Rudenko,108.6,325,220,,,300,845,110,M,Алексей Руденко,1979,SBD,Single-ply,Open
9,Evgeniy Kurtsev,108.05,330,215,,,292.5,837.5,110,M,Евгений Курцев,1971,SBD,Single-ply,Open
10,Maksim Chevernozhenko,107.5,325,190,,,310,825,110,M,Максим Чеверноженко,1977,SBD,Single-ply,Open
11,Mikhail Glazunov,108.3,310,195,,,300,805,110,M,Михаил Глазунов,1974,SBD,Single-ply,Open
DQ,Dmitriy Sapatov,108.95,,,,,,,110,M,Дмитрий Сапатов,1974,SBD,Single-ply,Open
DQ,Vyacheslav Piskunov,109.15,,,,,,,110,M,Вячеслав Пискунов,1951,SBD,Single-ply,Open
DQ,Anton Khomyakov,109.55,,,,,,,110,M,Антон Хомяков,1977,SBD,Single-ply,Open
1,Andrey Malanichev,124,400,240,,,360,1000,125,M,Андрей Маланичев,1977,SBD,Single-ply,Open
2,Igor Gagin,110.5,360,240,,,310,910,125,M,Игорь Гагин,1969,SBD,Single-ply,Open
3,Sergey Burmistrov,110.6,350,235,,,312.5,897.5,125,M,Сергей Бурмистров,1969,SBD,Single-ply,Open
4,Vladimir Maksimov,120.3,320,250,,,290,860,125,M,Владимир Максимов,1966,SBD,Single-ply,Open
5,Sergey Sidenko,116.9,330,235,,,285,850,125,M,Сергей Сиденко,1961,SBD,Single-ply,Open
6,Nikolay Kolodko,116.9,325,192.5,,,325,842.5,125,M,Николай Колодко,1967,SBD,Single-ply,Open
7,Mikhail Bulychev,123.2,325,222.5,,,290,837.5,125,M,Михаил Булычев,1973,SBD,Single-ply,Open
8,Sergey Volkov,110.5,330,200,,,300,830,125,M,Сергей Волков,1977,SBD,Single-ply,Open
DQ,Andrey Schukin,122.4,,,,,,,125,M,Андрей Щукин,1966,SBD,Single-ply,Open
1,Alexey Serebryakov,133.7,400,240,,,360,1000,125+,M,Алексей Серебряков,1978,SBD,Single-ply,Open
2,Igor Nastynov,161,345,227.5,,,310,882.5,125+,M,Игорь Настынов,1961,SBD,Single-ply,Open
3,Oleg Gagin,144.7,340,210,,,322.5,872.5,125+,M,Олег Гагин,1975,SBD,Single-ply,Open
4,Aleksandr Sirotkin,125.8,320,210,,,330,860,125+,M,Александр Сироткин,1961,SBD,Single-ply,Open
5,Vyacheslav Aksenov,125.3,282.5,180,,,312.5,775,125+,M,Вячеслав Аксенов,1981,SBD,Single-ply,Open
6,Aleksandr Dvoynikov,130.9,270,190,,,280,740,125+,M,Александр Двойников,1964,SBD,Single-ply,Open
1,Natalya Krikunova,44,120,60,,,130,310,44,F,Наталья Крикунова,1981,SBD,Single-ply,Open
2,Natalya Kolesnikova #1,43.9,125,62.5,,,120,307.5,44,F,Наталия Колесникова,1975,SBD,Single-ply,Open
3,Olga Golubeva,44,112.5,60,,,117.5,290,44,F,Ольга Голубева,1970,SBD,Single-ply,Open
1,Natalya Shapovalova,46.8,150,80,,,160,390,48,F,Наталья Шаповалова,1983,SBD,Single-ply,Open
2,Olga Legotkina,47.05,140,67.5,,,152.5,360,48,F,Ольга Леготкина,1976,SBD,Single-ply,Open
3,Natalya Tulina,47.1,142.5,67.5,,,125,335,48,F,Наталья Тулина,1959,SBD,Single-ply,Open
4,Elena Vorobyeva,48,122.5,70,,,140,332.5,48,F,Елена Воробьева,1978,SBD,Single-ply,Open
5,Alexandra Karbysheva,47.45,132.5,67.5,,,130,330,48,F,Александра Карбышева,1956,SBD,Single-ply,Open
6,Evelina Stepchenko,46.8,127.5,70,,,117.5,315,48,F,Эвелина Степченко,1974,SBD,Single-ply,Open
7,Natalya Mikhaylova,48,117.5,65,,,130,312.5,48,F,Наталья Михайлова,1979,SBD,Single-ply,Open
8,Maria Chushchina,47.95,120,55,,,125,300,48,F,Мария Чущина,1985,SBD,Single-ply,Open
9,Anna Alekseeva,47.2,105,55,,,115,275,48,F,Анна Алексеева,1976,SBD,Single-ply,Open
10,Marina Akhmina,47.75,102.5,52.5,,,120,275,48,F,Марина Ахмина,1983,SBD,Single-ply,Open
1,Tatyana Eltsova,51.8,177.5,90,,,165,432.5,52,F,Татьяна Ельцова,1978,SBD,Single-ply,Open
2,Natalya Ivanova,51.55,157.5,90,,,155,402.5,52,F,Наталья Иванова,1964,SBD,Single-ply,Open
3,Leann Maile Jennifer,50.5,150,90,,,150,390,52,F,,1984,SBD,Single-ply,Open
4,Svetlana Karpenko,52,155,85,,,140,380,52,F,Светлана Карпенко,1972,SBD,Single-ply,Open
5,Olga Oparina,51.9,127.5,72.5,,,137.5,337.5,52,F,Ольга Опарина,1979,SBD,Single-ply,Open
6,Tatyana Vasilyeva,51.5,127.5,67.5,,,142.5,337.5,52,F,Татьяна Васильева,1974,SBD,Single-ply,Open
7,Natalya Zherebtsova,51.65,125,72.5,,,120,317.5,52,F,Наталья Жеребцова,1977,SBD,Single-ply,Open
8,Elena Malykh,50.8,135,65,,,115,315,52,F,Елена Малых,1983,SBD,Single-ply,Open
9,Natalya Ushakova,51.8,120,72.5,,,115,307.5,52,F,Наталья Ушакова,1965,SBD,Single-ply,Open
10,Alla Dzyuba,51.65,120,62.5,,,112.5,295,52,F,Алла Дзюба,1978,SBD,Single-ply,Open
1,Valentina Nelyubova,55.75,185,133,,,177.5,495.5,56,F,Валентина Нелюбова,1966,SBD,Single-ply,Open
2,Inna Filimonova #1,55.9,207.5,100,,,182.5,490,56,F,Инна Филимонова,1976,SBD,Single-ply,Open
3,Elena Petrunina,56,177.5,102.5,,,180,460,56,F,Елена Петрунина,1976,SBD,Single-ply,Open
4,Valentina Morozova,56,170,87.5,,,180,437.5,56,F,Валентина Морозова,1960,SBD,Single-ply,Open
5,Alla Lobanova,55.3,165,80,,,160,405,56,F,Алла Лобанова,1980,SBD,Single-ply,Open
6,Mayya Paligina,55.6,145,70,,,152.5,367.5,56,F,Майя Палигина,1979,SBD,Single-ply,Open
7,Lidiya Medvedeva,55.54,135,80,,,145,360,56,F,Лидия Медведева,1974,SBD,Single-ply,Open
8,Vera Gubanova,55.92,150,65,,,145,360,56,F,Вера Губанова,1961,SBD,Single-ply,Open
9,Olga Puzanova,54.02,130,70,,,140,340,56,F,Ольга Пузанова,1977,SBD,Single-ply,Open
10,Natalya Valova,55.48,105,75,,,150,330,56,F,Наталья Валова,1969,SBD,Single-ply,Open
11,Anna Pudovkina,56,135,55,,,125,315,56,F,Анна Пудовкина,1981,SBD,Single-ply,Open
12,Marina Bemova,55.58,120,55,,,130,305,56,F,Марина Бемова,1981,SBD,Single-ply,Open
1,Elena Fomina,60,212.5,125,,,202.5,540,60,F,Елена Фомина,1969,SBD,Single-ply,Open
2,Irina Abramova,59.5,212.5,107.5,,,205,525,60,F,Ирина Абрамова,1974,SBD,Single-ply,Open
3,Diana Sidorova,60,185,105,,,200,490,60,F,Диана Сидорова,1975,SBD,Single-ply,Open
4,Alevtina Galimova,59.8,180,110,,,170,460,60,F,Алевтина Галимова,1966,SBD,Single-ply,Open
5,Anzhelika Kond,60,155,92.5,,,160,407.5,60,F,Анжелика Конд,1975,SBD,Single-ply,Open
6,Margarita Kosareva,60,170,75,,,155,400,60,F,Маргарита Косарева,1985,SBD,Single-ply,Open
7,Natalya Mirzoeva,59.95,157.5,80,,,160,397.5,60,F,Наталья Мирзоева,1968,SBD,Single-ply,Open
8,Natalya Busarova,59.95,157.5,92.5,,,140,390,60,F,Наталья Бусарова,1982,SBD,Single-ply,Open
9,Tatyana Illyushko,58.7,150,85,,,135,370,60,F,Татьяна Иллюшко,1975,SBD,Single-ply,Open
10,Irina Lebedeva,59.7,155,80,,,135,370,60,F,Ирина Лебедева,1983,SBD,Single-ply,Open
11,Olga Yurchenko,59.9,150,62.5,,,157.5,370,60,F,Ольга Юрченко,1970,SBD,Single-ply,Open
1,Tatyana Danilevich,67.35,195,130,,,190,515,67.5,F,Татьяна Данилевич,1969,SBD,Single-ply,Open
2,Elena Nikolaeva,65.95,195,120,,,175,490,67.5,F,Елена Николаева,1974,SBD,Single-ply,Open
3,Natalya Magula,66.5,192.5,100,,,195,487.5,67.5,F,Наталья Магула,1966,SBD,Single-ply,Open
4,Inna Zakharova,67,197.5,95,,,170,462.5,67.5,F,Инна Захарова,1976,SBD,Single-ply,Open
5,Danna Maschenko,62.4,190,100,,,157.5,447.5,67.5,F,Данна Мащенко,1977,SBD,Single-ply,Open
6,Olga Chumincheva,66.35,170,100,,,177.5,447.5,67.5,F,Ольга Чуминчева,1976,SBD,Single-ply,Open
7,Yana Gross,67.2,165,100,,,180,445,67.5,F,Яна Гросс,1974,SBD,Single-ply,Open
8,Natalya Bogatova,66.4,170,100,,,162.5,432.5,67.5,F,Наталья Богатова,1965,SBD,Single-ply,Open
9,Elena Kostyleva,66.6,180,87.5,,,160,427.5,67.5,F,Елена Костылева,1975,SBD,Single-ply,Open
10,Olga Pantina,63.4,180,90,,,145,415,67.5,F,Ольга Пантина,1979,SBD,Single-ply,Open
11,Olga Salyukova,67.3,170,80,,,160,410,67.5,F,Ольга Салюкова,1983,SBD,Single-ply,Open
12,Oksana Prokofeva,65.3,160,90,,,150,400,67.5,F,Оксана Прокофьева,1979,SBD,Single-ply,Open
13,Jill Darling,62.65,145,110,,,132.5,387.5,67.5,F,,1977,SBD,Single-ply,Open
14,Yuliya Matveeva,67.2,137.5,75,,,135,347.5,67.5,F,Юлия Матвеева,1981,SBD,Single-ply,Open
1,Marina Kudinova,69.9,260,147.5,,,230.5,638,75,F,Марина Кудинова,1977,SBD,Single-ply,Open
2,Svetlana Dedyulya,74.7,240,155,,,212.5,607.5,75,F,Светлана Дедюля,1975,SBD,Single-ply,Open
3,Tatyana Mescheryakova,74.95,242.5,135,,,222.5,600,75,F,Татьяна Мещерякова,1974,SBD,Single-ply,Open
4,Anna Terentyeva,74.25,210,155,,,200,565,75,F,Анна Терентьева,1975,SBD,Single-ply,Open
5,Svetlana Bochko,74.1,170,100,,,200,470,75,F,Светлана Бочко,1963,SBD,Single-ply,Open
6,Aleksandra Yudintseva,74.1,175,87.5,,,167.5,430,75,F,Александра Юдинцева,1972,SBD,Single-ply,Open
7,Oksana Ageeva,74.5,165,80,,,167.5,412.5,75,F,Оксана Агеева,1979,SBD,Single-ply,Open
8,Christina Newman,72,145,97.5,,,152.5,395,75,F,,1977,SBD,Single-ply,Open
9,Elena Melikhova,73.2,140,90,,,160,390,75,F,Елена Мелихова,1972,SBD,Single-ply,Open
10,Larisa Schepina,72.2,140,80,,,140,360,75,F,Лариса Щепина,1970,SBD,Single-ply,Open
DQ,Taisiya Morozova,73.05,,,,,,,75,F,Таисия Морозова,1982,SBD,Single-ply,Open
1,Olesya Rychkova,82.4,235,135,,,230,600,82.5,F,Олеся Рычкова,1974,SBD,Single-ply,Open
2,Natalya Rumyantseva,82.5,230,140,,,225,595,82.5,F,Наталья Румянцева,1971,SBD,Single-ply,Open
3,Natalya Zotova-Payusova,81.8,220,142.5,,,232.5,595,82.5,F,Наталья Зотова-Паюсова,1975,SBD,Single-ply,Open
4,Irina Naskripnyak,82.5,165,120,,,150,435,82.5,F,Ирина Наскрипняк,1969,SBD,Single-ply,Open
5,Tatyana Ponomareva,80.2,150,90,,,157.5,397.5,82.5,F,Татьяна Пономарева,1962,SBD,Single-ply,Open
1,Irina Lugovaya,89.6,250,160,,,240,650,90,F,Ирина Луговая,1974,SBD,Single-ply,Open
2,Yulia Kurina,89.25,245,107.5,,,200,552.5,90,F,Юлия Курина,1981,SBD,Single-ply,Open
3,Elena Yurik,82.6,180,137.5,,,180,497.5,90,F,Елена Юрик,1977,SBD,Single-ply,Open
1,Anastasia Pavlova,112.7,270,145,,,245,660,90+,F,Анастасия Павлова,1968,SBD,Single-ply,Open
2,Galina Karpova,98.95,252.5,150,,,225,627.5,90+,F,Галина Карпова,1968,SBD,Single-ply,Open
3,Elena Avilkina,103.55,260,135,,,215,610,90+,F,Елена Авилкина,1977,SBD,Single-ply,Open
DQ,Deborah Ferrell,116.95,,165,,,182.5,,90+,F,,1964,SBD,Single-ply,Open
