Place,Name,BirthYear,Country,BodyweightKg,Squat1Kg,Squat2Kg,Squat3Kg,Best3SquatKg,Bench1Kg,Bench2Kg,Bench3Kg,Bench4Kg,Best3BenchKg,Deadlift1Kg,Deadlift2Kg,Deadlift3Kg,Best3DeadliftKg,TotalKg,WeightClassKg,Division,Event,Sex,Equipment
1,Alexandra Pinzhenina,1988,Russia,43.99,-120,120,125,125,70,-75,-75,,70,100,-110,110,110,305,44,Sub-Juniors,SBD,F,Single-ply
2,Alyssa Gordova,1987,USA,43.1,105,115,-122.5,115,42.5,45,-50,,45,115,122.5,-145,122.5,282.5,44,Sub-Juniors,SBD,F,Single-ply
3,Jenna Jaynes,1988,USA,42.5,-97.5,-97.5,97.5,97.5,55,60,-62.5,,60,102.5,112.5,117.5,117.5,275,44,Sub-Juniors,SBD,F,Single-ply
1,Anastasiya Kolisnikova,1987,Kazakhstan,47.26,100,115,-125,115,-50,50,52.5,,52.5,120,130,137.5,137.5,305,48,Sub-Juniors,SBD,F,Single-ply
2,Inessa Dik,1990,Russia,47.53,110,120,-125,120,60,-67.5,67.5,,67.5,110,117.5,-120,117.5,305,48,Sub-Juniors,SBD,F,Single-ply
1,Caitlin Miller,1990,USA,51.96,132.5,147.5,155,155,67.5,72.5,-75,,72.5,155,170,-182.5,170,397.5,52,Sub-Juniors,SBD,F,Single-ply
2,Yu Inoue,1988,Japan,49.76,-100,110,125,125,65,75,-80,,75,100,110,120,120,320,52,Sub-Juniors,SBD,F,Single-ply
DQ,Irina Sergeeva,1987,Russia,51.99,-135,-135,-135,,65,-70,-70,,65,125,132.5,135,135,,52,Sub-Juniors,SBD,F,Single-ply
1,Katie Van Dusen,1988,USA,54.9,137.5,-147.5,147.5,147.5,72.5,-77.5,77.5,,77.5,140,145,150,150,375,56,Sub-Juniors,SBD,F,Single-ply
2,Nataliya Davidova,1987,Kazakhstan,55.83,130,140,150,150,80,87.5,-90,,87.5,120,132.5,-137.5,132.5,370,56,Sub-Juniors,SBD,F,Single-ply
3,Manami Kohasni,1987,Japan,55.26,100,-110,110,110,60,65,-70,,65,90,100,-105,100,275,56,Sub-Juniors,SBD,F,Single-ply
1,Yulia Lukina,1988,Russia,59.52,165,175,-185,175,105,110.5,115,,115,140,165,,165,455,60,Sub-Juniors,SBD,F,Single-ply
1,Viktoriya Bedoidze,1987,Russia,66.8,175,-180,-180,175,80,90,-95,,90,175,180,185,185,450,67.5,Sub-Juniors,SBD,F,Single-ply
2,Rhaea Stinn,1988,Canada,66.58,155,162.5,-167.5,162.5,85,92.5,-100,,92.5,157.5,160,172.5,172.5,427.5,67.5,Sub-Juniors,SBD,F,Single-ply
3,Molly Dennany,1987,USA,67.41,145,155,-165,155,92.5,100,105,,105,147.5,155,167.5,167.5,427.5,67.5,Sub-Juniors,SBD,F,Single-ply
4,Natasha Armstrong,1989,New Zealand,67.48,130,-140,-140,130,62.5,67.5,72.5,,72.5,130,140,147.5,147.5,350,67.5,Sub-Juniors,SBD,F,Single-ply
5,Yuka Kuroyanagi,1987,Japan,60.5,110,120,-125,120,70,-80,80,,80,140,-150,-150,140,340,67.5,Sub-Juniors,SBD,F,Single-ply
6,Chantel de Wet,1988,South Africa,63.38,-110,115,-120,115,45,50,-60,,50,125,-137.5,-137.5,125,290,67.5,Sub-Juniors,SBD,F,Single-ply
1,Tetyana Skrypka,1987,Ukraine,70.56,-215,215,220,220,135,-145,150,,150,200,212.5,-220,212.5,582.5,75,Sub-Juniors,SBD,F,Single-ply
2,Ekaterina Sadokhina,1988,Russia,73.2,185,200,-220,200,115,130,140,,140,185,-195,200,200,540,75,Sub-Juniors,SBD,F,Single-ply
3,Ayako Nishida,1987,Japan,71.38,145,155,-160,155,70,-75,75,,75,145,155,162.5,162.5,392.5,75,Sub-Juniors,SBD,F,Single-ply
4,Yuri Takayama,1988,Japan,68.29,90,-100,100,100,40,-50,-50,,40,100,-110,-110,100,240,75,Sub-Juniors,SBD,F,Single-ply
1,Evgenia Kolodko,1990,Russia,79.84,185,200,205,205,-80,80,85,,85,175,185,-190,185,475,82.5,Sub-Juniors,SBD,F,Single-ply
2,Devan Doan,1987,USA,79.81,-155,155,-175,155,-132.5,132.5,137.5,,137.5,150,160,-167.5,160,452.5,82.5,Sub-Juniors,SBD,F,Single-ply
3,Monica Millet,1987,USA,81.95,145,155,165,165,-82.5,-82.5,82.5,,82.5,162.5,172.5,-180,172.5,420,82.5,Sub-Juniors,SBD,F,Single-ply
4,Jazminde Traeger,1987,Australia,75.4,150,160,-167.5,160,80,-87.5,90,,90,150,-155,-155,150,400,82.5,Sub-Juniors,SBD,F,Single-ply
1,Bonica Brown,1988,USA,88.11,185,215,-230,215,105,112.5,122.5,,122.5,175,190,200,200,537.5,90,Sub-Juniors,SBD,F,Single-ply
1,Amber Heard,1987,USA,139.28,200,-210,-210,200,87.5,97.5,-102.5,,97.5,-160,160,170,170,467.5,90+,Sub-Juniors,SBD,F,Single-ply
2,Tamara Walter,1987,USA,134.26,175,-182.5,182.5,182.5,-87.5,-87.5,87.5,,87.5,150,-162.5,167.5,167.5,437.5,90+,Sub-Juniors,SBD,F,Single-ply
3,Marina Dzhavikhishvili,1988,Russia,111.55,150,165,-175,165,-90,90,95,,95,160,-170,-177.5,160,420,90+,Sub-Juniors,SBD,F,Single-ply
1,Rika Miura,1982,Japan,43.6,120,130,-135,130,92.5,-97.5,-97.5,,92.5,135,142.5,-147.5,142.5,365,44,Juniors,SBD,F,Single-ply
2,Tatyana Koroleva,1986,Russia,43.63,135,-140,142.5,142.5,57.5,62.5,-67.5,,62.5,140,150,-162.5,150,355,44,Juniors,SBD,F,Single-ply
3,Erin Dickey,1984,USA,43.7,105,117.5,-125,117.5,60,67.5,72.5,,72.5,112.5,125,-130,125,315,44,Juniors,SBD,F,Single-ply
1,Taisiya Kuznetsova,1986,Ukraine,47.95,135,-142.5,142.5,142.5,80,85,-90,,85,140,150,152.5,152.5,380,48,Juniors,SBD,F,Single-ply
2,Ashley Matherne,1983,USA,47.96,125,135,-142.5,135,85,90,92.5,,92.5,130,142.5,-152.5,142.5,370,48,Juniors,SBD,F,Single-ply
3,Tomoe Nishikawa,1983,Japan,47.6,107.5,-120,120,120,55,60,-65,,60,125,135,145,145,325,48,Juniors,SBD,F,Single-ply
4,Carola Lindström,1982,Sweden,46.36,110,-115,-115,110,55,-60,-60,,55,110,120,122.5,122.5,287.5,48,Juniors,SBD,F,Single-ply
1,Anna Ryzhkova,1986,Russia,51.53,165,175,182.5,182.5,92.5,97.5,100,,100,160,170,175,175,457.5,52,Juniors,SBD,F,Single-ply
2,Ashley Awalt,1983,USA,51.73,-155,155,160,160,97.5,107.5,112.5,,112.5,152.5,160,-172.5,160,432.5,52,Juniors,SBD,F,Single-ply
3,Hanna Rantala,1982,Finland,51.86,-152.5,-152.5,152.5,152.5,105,-110,-110,,105,140,150,157.5,157.5,415,52,Juniors,SBD,F,Single-ply
4,Vanessa Vautier,1983,France,51.62,140,147.5,-152.5,147.5,82.5,-85,-85,,82.5,132.5,142.5,147.5,147.5,377.5,52,Juniors,SBD,F,Single-ply
5,Naho Machida,1983,Japan,51.48,115,130,-135,130,57.5,65,67.5,,67.5,135,150,-155,150,347.5,52,Juniors,SBD,F,Single-ply
6,Marietta Leah,1985,USA,51.75,137.5,-147.5,147.5,147.5,70,-75,-75,,70,130,-140,-140,130,347.5,52,Juniors,SBD,F,Single-ply
7,Minako Kaneda,1984,Japan,50.79,100,110,-125,110,80,-85,-85,,80,120,130,140,140,330,52,Juniors,SBD,F,Single-ply
8,Susse Hougaard,1984,Denmark,51.4,100,-115,115,115,80,-90,-92.5,,80,120,135,-142.5,135,330,52,Juniors,SBD,F,Single-ply
1,Kira Pavlovskaya,1983,Russia,55.89,165,-172.5,177.5,177.5,100,105,107.5,,107.5,170,177.5,180,180,465,56,Juniors,SBD,F,Single-ply
2,Eleonora Makhpirova,1986,Kazakhstan,55.17,150,162.5,170,170,70,80,85,,85,125,135,152.5,152.5,407.5,56,Juniors,SBD,F,Single-ply
3,Christin Toepler,1983,Germany,55.34,135,-142.5,142.5,142.5,82.5,-85,-85,,82.5,132.5,140,-152.5,140,365,56,Juniors,SBD,F,Single-ply
4,Cécile Courqueux,1983,France,55.08,137.5,145,-152.5,145,60,-67.5,-67.5,,60,140,150,155,155,360,56,Juniors,SBD,F,Single-ply
DD,Anna Shulga,1983,Russia,55.42,170,-180,182.5,182.5,87.5,92.5,97.5,,97.5,175,182.5,-187.5,182.5,,56,Juniors,SBD,F,Single-ply
1,Anastasia Yakovleva,1983,Russia,59.97,190,200,-208,200,100,110,117.5,,117.5,175,185,192.5,192.5,510,60,Juniors,SBD,F,Single-ply
2,Olga Ustinova,1984,Russia,59.62,170,182.5,192.5,192.5,90,95,100,,100,160,170,175,175,467.5,60,Juniors,SBD,F,Single-ply
3,Carly Nogle,1986,USA,59.96,152.5,165,-175,165,87.5,97.5,-102.5,,97.5,177.5,185,-190,185,447.5,60,Juniors,SBD,F,Single-ply
4,Evgenia Vasilyeva,1982,Kazakhstan,59.31,160,172.5,177.5,177.5,70,80,-87.5,,80,170,180,-185,180,437.5,60,Juniors,SBD,F,Single-ply
5,Paola Piccolo Yamila,1985,Argentina,59.33,165,-175,177.5,177.5,-87.5,-87.5,87.5,,87.5,162.5,172.5,-182.5,172.5,437.5,60,Juniors,SBD,F,Single-ply
6,Joanna Janzén,1982,Sweden,58.71,115,-125,-125,115,-60,60,-65,,60,130,140,145,145,320,60,Juniors,SBD,F,Single-ply
7,Mami Kamada,1985,Japan,57.3,100,110,-117.5,110,57.5,62.5,65,,65,115,125,130,130,305,60,Juniors,SBD,F,Single-ply
1,Yulia Medvedeva,1986,Russia,65.37,180,-195,195,195,-130,130,140,,140,170,182.5,-190,182.5,517.5,67.5,Juniors,SBD,F,Single-ply
2,Yuliya Goryachun,1983,Ukraine,66.89,190,-197.5,-197.5,190,100,110,-122.5,,110,180,185,190,190,490,67.5,Juniors,SBD,F,Single-ply
3,Natali Burlakova,1984,Kazakhstan,66.64,170,182.5,190,190,110,-120,-120,,110,170,180,-187.5,180,480,67.5,Juniors,SBD,F,Single-ply
4,Takami Furuhashi,1984,Japan,62.31,80,90,-100,90,-55,55,62.5,,62.5,90,100,105,105,257.5,67.5,Juniors,SBD,F,Single-ply
DQ,Lise Ejlertsen,1982,Denmark,66.57,150,-170,-170,150,-90,-90,-90,,,,,,,,67.5,Juniors,SBD,F,Single-ply
1,Yulia Goman,1984,Russia,71.63,220,230,-240,230,120,130,-132.5,,130,210,220,230,230,590,75,Juniors,SBD,F,Single-ply
2,Kimmie Everett,1983,USA,75,-185,185,-190,185,95,-105,107.5,,107.5,170,182.5,187.5,187.5,480,75,Juniors,SBD,F,Single-ply
3,Stephanie Lefevre,1983,France,71.6,140,155,162.5,162.5,85,95,-97.5,,95,150,157.5,-160,157.5,415,75,Juniors,SBD,F,Single-ply
1,Lacy Picou,1982,USA,76.15,145,157.5,167.5,167.5,75,82.5,87.5,,87.5,145,157.5,-167.5,157.5,412.5,82.5,Juniors,SBD,F,Single-ply
2,Yuka Asai,1983,Japan,82.34,160,-165,-165,160,-107.5,-107.5,107.5,,107.5,130,-140,-140,130,397.5,82.5,Juniors,SBD,F,Single-ply
DD,Alexandra Murashova,1982,Russia,80.3,-245,245,257.5,257.5,135,142.5,-147.5,,142.5,225,235,242.5,242.5,,82.5,Juniors,SBD,F,Single-ply
1,Valeria Shcheglova,1983,Russia,87.75,250,260,-272.5,260,150,160,-167.5,,160,210,225,-235,225,645,90,Juniors,SBD,F,Single-ply
2,Anna Śliwińska,1982,Poland,88.83,225,-235,-235,225,125,-150,150,,150,180,195,200,200,575,90,Juniors,SBD,F,Single-ply
3,Yuliya Stesenko,1984,Uzbekistan,87.58,190,-225,-225,190,105,-120,-130,,105,160,180,195,195,490,90,Juniors,SBD,F,Single-ply
1,Viktoriya Olenytsya,1984,Ukraine,122.44,-250,250,-267.5,250,165,175.5,180,,180,220,232.5,-237.5,232.5,662.5,90+,Juniors,SBD,F,Single-ply
2,Hildeborg Juvet Hugdal,1983,Norway,120.89,245,-250,250,250,145,150,152.5,,152.5,187.5,195,-200,195,597.5,90+,Juniors,SBD,F,Single-ply
3,Sarah Greenup,1982,USA,107.74,227.5,-240,240,240,130,-140,142.5,,142.5,180,190,200,200,582.5,90+,Juniors,SBD,F,Single-ply
4,Jamie Johnson #4,1982,USA,107.26,197.5,210,-225,210,140,-150,-150,,140,187.5,202.5,-222.5,202.5,552.5,90+,Juniors,SBD,F,Single-ply
1,Alexander Kolbin,1987,Russia,51.99,200,210,-217.5,210,120,125.5,-130,,125.5,200,217.5,225,225,560,52,Sub-Juniors,SBD,M,Single-ply
2,Yasumasa Oishi,1987,Japan,51.2,140,160,-170,160,90,105,-120,,105,180,-190,-190,180,445,52,Sub-Juniors,SBD,M,Single-ply
3,Ryan Bachorz,1988,USA,51.75,145,157.5,-162.5,157.5,87.5,92.5,-97.5,,92.5,155,167.5,-175,167.5,417.5,52,Sub-Juniors,SBD,M,Single-ply
4,Yudai Tomita,1987,Japan,51.43,120,-130,-130,120,90,-95,-97.5,,90,140,150,-167.5,150,360,52,Sub-Juniors,SBD,M,Single-ply
1,Alexander Koval,1988,Russia,55.67,185,-192.5,-192.5,185,-100,107.5,112.5,,112.5,175,185,195,195,492.5,56,Sub-Juniors,SBD,M,Single-ply
2,Aleksey Kim,1987,Uzbekistan,55.61,180,200,-210,200,80,-100,-100,,80,182.5,197.5,-210,197.5,477.5,56,Sub-Juniors,SBD,M,Single-ply
3,Tyler Baines,1988,USA,55.67,145,157.5,-162.5,157.5,102.5,107.5,-112.5,,107.5,170,180,-185,180,445,56,Sub-Juniors,SBD,M,Single-ply
4,Jed Peisley,1988,Australia,55.8,140,147.5,-152.5,147.5,95,97.5,-102.5,,97.5,175,182.5,187.5,187.5,432.5,56,Sub-Juniors,SBD,M,Single-ply
5,Jason Marentette,1988,Canada,55.94,132.5,147.5,-157.5,147.5,80,87.5,-92.5,,87.5,165,-182.5,-187.5,165,400,56,Sub-Juniors,SBD,M,Single-ply
6,Shunsuke Hidawa,1988,Japan,54.79,-115,115,125,125,85,92.5,-97.5,,92.5,140,145,150,150,367.5,56,Sub-Juniors,SBD,M,Single-ply
1,Anton Krasilnikov,1987,Russia,59.83,240,260,270,270,150,160,162.5,,162.5,225,235,242.5,242.5,675,60,Sub-Juniors,SBD,M,Single-ply
2,Arthur Mashinskiy,1987,Russia,59.64,210,222.5,227.5,227.5,140,155,-165,,155,220,240,255,255,637.5,60,Sub-Juniors,SBD,M,Single-ply
3,Aman Kapyshev,1987,Kazakhstan,59.73,190,210,217.5,217.5,120,-130,135,,135,180,190,197.5,197.5,550,60,Sub-Juniors,SBD,M,Single-ply
4,Johan Smith,1991,South Africa,59.14,175,185,-195,185,85,-97.5,-97.5,,85,160,175,-180,175,445,60,Sub-Juniors,SBD,M,Single-ply
1,Petr Pugachev,1988,Russia,67,240,255,-267.5,255,145,155,-160,,155,250,265,275.5,275.5,685,67.5,Sub-Juniors,SBD,M,Single-ply
2,Alexey Vlasov,1987,Russia,60.16,210,225,232.5,232.5,115,122.5,127.5,,127.5,200,215,-225,215,575,67.5,Sub-Juniors,SBD,M,Single-ply
3,Takuya Kanazawa,1987,Japan,64.36,190,200,-210,200,130,140,-145,,140,180,195,207.5,207.5,547.5,67.5,Sub-Juniors,SBD,M,Single-ply
4,Matias Rahtu,1987,Finland,66.37,192.5,200,-210,200,145,-155,-155,,145,190,200,-205,200,545,67.5,Sub-Juniors,SBD,M,Single-ply
5,Petteri Keränen,1987,Finland,66.37,-197.5,197.5,-220,197.5,125,132.5,-140,,132.5,175,195,212.5,212.5,542.5,67.5,Sub-Juniors,SBD,M,Single-ply
6,Stephanus Coetzee,1987,South Africa,66.14,170,190,200,200,90,110,120,,120,170,190,-195,190,510,67.5,Sub-Juniors,SBD,M,Single-ply
7,Matthew Lang,1987,Australia,67.4,180,190,-200,190,95,105,-110,,105,190,-202.5,210,210,505,67.5,Sub-Juniors,SBD,M,Single-ply
8,Simar Virk,1989,Canada,66.99,-195,200,-212.5,200,85,92.5,,,92.5,190,207.5,-210,207.5,500,67.5,Sub-Juniors,SBD,M,Single-ply
9,Yasuaki Nojima,1987,Japan,65.16,160,170,-180,170,95,100,-105,,100,175,-190,-190,175,445,67.5,Sub-Juniors,SBD,M,Single-ply
10,Colin Hartle,,Canada,61.87,130,137.5,-142.5,137.5,57.5,65,67.5,,67.5,132.5,142.5,150,150,355,67.5,Sub-Juniors,SBD,M,Single-ply
1,Aslan Agaev,1987,Russia,72.81,-240,240,260,260,150,160,170,,170,240,252.5,262.5,262.5,692.5,75,Sub-Juniors,SBD,M,Single-ply
2,Joe Raehl,1987,USA,72.38,190,197.5,205,205,120,130,135,,135,220,230,-235,230,570,75,Sub-Juniors,SBD,M,Single-ply
3,Hiroaki Kojima,1988,Japan,72.07,200,205,210,210,120,-130,-130,,120,215,220,225,225,555,75,Sub-Juniors,SBD,M,Single-ply
4,Marlon Obratoski,1987,Canada,74.88,197.5,210,215,215,112.5,122.5,-130,,122.5,215,-225,-225,215,552.5,75,Sub-Juniors,SBD,M,Single-ply
5,Yoshitaka Taguchi,1987,Japan,69.34,175,-195,-195,175,130,145,-160,,145,170,-192.5,-192.5,170,490,75,Sub-Juniors,SBD,M,Single-ply
1,Vladimir Agafonov,1987,Russia,77.05,240,260,-275,260,145,155,-160,,155,260,280,300,300,715,82.5,Sub-Juniors,SBD,M,Single-ply
2,Daijiro Okada,1987,Japan,75.1,-210,210,-225,210,120,130,137.5,,137.5,-210,210,225,225,572.5,82.5,Sub-Juniors,SBD,M,Single-ply
3,Kyohei Kubo,1987,Japan,78.85,210,-230,230,230,130,-150,-150,,130,200,210,-217.5,210,570,82.5,Sub-Juniors,SBD,M,Single-ply
4,Kain Lyon,1987,Canada,80.81,200,-210,-210,200,120,-127.5,127.5,,127.5,225,-232.5,-232.5,225,552.5,82.5,Sub-Juniors,SBD,M,Single-ply
DQ,Justin Tuinstra,1988,USA,81.05,-212.5,212.5,-227.5,212.5,145,-152.5,-152.5,,145,-212.5,-212.5,-212.5,,,82.5,Sub-Juniors,SBD,M,Single-ply
1,Amiran Basov,1987,Russia,88.7,290,-300,300,300,155,170,175,,175,260,270,,270,745,90,Sub-Juniors,SBD,M,Single-ply
2,Shane Brady,1987,USA,88.86,225,242.5,262.5,262.5,152.5,162.5,182.5,,182.5,215,230,240,240,685,90,Sub-Juniors,SBD,M,Single-ply
1,Jeremy Auerbach,1987,USA,90.45,235,245,255,255,187.5,197.5,205,,205,232.5,245,-267.5,245,705,100,Sub-Juniors,SBD,M,Single-ply
2,Efim Naniev,1988,Uzbekistan,90.18,200,225,240,240,-140,145,155,,155,250,270,-285,270,665,100,Sub-Juniors,SBD,M,Single-ply
3,Tomas Sundström,1988,Sweden,90.13,250,-265,265,265,150,160,-167.5,,160,-215,220,230,230,655,100,Sub-Juniors,SBD,M,Single-ply
4,Ryan Rowsall,1988,Canada,90.33,215,-230,-230,215,177.5,-187.5,187.5,,187.5,215,-227.5,-250,215,617.5,100,Sub-Juniors,SBD,M,Single-ply
5,Kota Umezawa,1987,Japan,94.3,-200,200,-220,200,110,120,-140,,120,180,190,-205,190,510,100,Sub-Juniors,SBD,M,Single-ply
1,Brandon Fiebiger,1988,USA,101.11,215,235,-252.5,235,125,137.5,-142.5,,137.5,252.5,262.5,270,270,642.5,110,Sub-Juniors,SBD,M,Single-ply
2,Seif Abdulhamid,1987,Sweden,107.88,235,-250,-250,235,142.5,150,160,,160,-230,230,-250,230,625,110,Sub-Juniors,SBD,M,Single-ply
3,Stephan Straus,1987,Germany,101.7,225,235,250,250,130,-140,145,,145,210,225,-230,225,620,110,Sub-Juniors,SBD,M,Single-ply
1,Johannes Steyn,1987,South Africa,110.05,280,310,-322.5,310,180,-210,210,,210,300,323,335,335,855,125,Sub-Juniors,SBD,M,Single-ply
2,Cooper Wage,1987,USA,122.66,-312.5,312.5,327.5,327.5,197.5,207.5,220.5,,220.5,200,227.5,-242.5,227.5,775,125,Sub-Juniors,SBD,M,Single-ply
3,Alex Gilde,1987,USA,119.96,275,287.5,297.5,297.5,165,177.5,-192.5,,177.5,270,285,-300,285,760,125,Sub-Juniors,SBD,M,Single-ply
4,Matti Hietala,1987,Finland,116.22,230,240,250,250,145,-150,150,,150,250,260,-265,260,660,125,Sub-Juniors,SBD,M,Single-ply
1,Yuriy Papoyan,1987,Russia,125.7,300,-315,325,325,190,200,205,,205,250,260,275,275,805,125+,Sub-Juniors,SBD,M,Single-ply
2,Jani Rainela,1988,Finland,158.72,310,-325,-330,310,192.5,212.5,222.5,,222.5,-240,-240,240,240,772.5,125+,Sub-Juniors,SBD,M,Single-ply
3,Matt Armen,1987,USA,130.93,-282.5,282.5,300,300,192.5,205,-222.5,,205,227.5,242.5,-247.5,242.5,747.5,125+,Sub-Juniors,SBD,M,Single-ply
4,Mike Hecht,1987,USA,153.69,-272.5,-272.5,272.5,272.5,195,-205,205,,205,250,-260,,250,727.5,125+,Sub-Juniors,SBD,M,Single-ply
5,Ásbjörn Ólafsson,1987,Iceland,129.06,-260,-270,270,270,190,205,-215,,205,240,-260,-260,240,715,125+,Sub-Juniors,SBD,M,Single-ply
6,Samuel Lane,1987,Australia,146.69,240,250,260,260,100,-125,-140,,100,255,265,-277.5,265,625,125+,Sub-Juniors,SBD,M,Single-ply
7,Richard Singh,1988,Canada,130.19,190,-210,-210,190,145,-157.5,-160,,145,190,-200,-200,190,525,125+,Sub-Juniors,SBD,M,Single-ply
1,Evgeniy Karimov,1983,Russia,51.69,150,-170,170,170,110,120,130,,130,160,180,-200,180,480,52,Juniors,SBD,M,Single-ply
2,David Summers,,USA,51.06,-160,160,-167.5,160,95,-102.5,-102.5,,95,160,165,170,170,425,52,Juniors,SBD,M,Single-ply
3,Hisayuki Takase,1984,Japan,51.97,140,-150,-150,140,90,-97.5,97.5,,97.5,130,,,130,367.5,52,Juniors,SBD,M,Single-ply
1,Jeremy Scruggs,,USA,55.6,190,205,210,210,115,125,130,,130,215,230,235,235,575,56,Juniors,SBD,M,Single-ply
2,Tomasz Zambrzycki,1985,Poland,55.9,-180,180,205,205,97.5,102.5,107.5,,107.5,180,190,-200,190,502.5,56,Juniors,SBD,M,Single-ply
3,Mike Haffenbrack,,USA,55.34,190,195,-200,195,105,112.5,115,,115,190,-195,-195,190,500,56,Juniors,SBD,M,Single-ply
1,Yoshihiro Sato,1982,Japan,59.47,210,-220,-220,210,-160,-160,160,,160,205,212.5,215,215,585,60,Juniors,SBD,M,Single-ply
2,Michael Kuhns,,USA,58.68,-227.5,232.5,-245,232.5,160,-165,165,,165,160,170,180,180,577.5,60,Juniors,SBD,M,Single-ply
3,Rémi Bhang,1984,France,59.81,195,210,220,220,95,105,115,,115,215,230,-245,230,565,60,Juniors,SBD,M,Single-ply
4,Dominik Golak,1982,Poland,58.4,195,205,215,215,130,-135,137.5,,137.5,200,210,-215,210,562.5,60,Juniors,SBD,M,Single-ply
5,Marvin Merizalde Olivera,1983,Ecuador,57.05,-195,195,210,210,115,-125,-127.5,,115,205,212.5,217.5,217.5,542.5,60,Juniors,SBD,M,Single-ply
6,Jaroslaw Skaba,1982,Poland,58.4,180,-190,190,190,100,-105,105,,105,185,192.5,-197.5,192.5,487.5,60,Juniors,SBD,M,Single-ply
1,Caleb Williams #1,1984,USA,67.08,275,-292.5,292.5,292.5,-177.5,177.5,-190,,177.5,245,262.5,-272.5,262.5,732.5,67.5,Juniors,SBD,M,Single-ply
2,Tomasz Jarosiewicz,1982,Poland,67.45,245,255,-260,255,165,175,-177.5,,175,240,252.5,-265,252.5,682.5,67.5,Juniors,SBD,M,Single-ply
3,Takashi Kanazawa,1982,Japan,67.14,210,230,-235,230,185,195,200,,200,210,227.5,-230,227.5,657.5,67.5,Juniors,SBD,M,Single-ply
4,Antoni Mastrolorenzo,1982,France,66.48,235,247.5,252.5,252.5,140,147.5,-152.5,,147.5,225,232.5,240,240,640,67.5,Juniors,SBD,M,Single-ply
5,Arkadiusz Kaminski,1982,Poland,67.06,220,230,-235,230,115,125,130,,130,215,227.5,240,240,600,67.5,Juniors,SBD,M,Single-ply
6,Akitaka Himei,1982,Japan,67.48,160,175,185,185,100,107.5,110,,110,195,217.5,-235,217.5,512.5,67.5,Juniors,SBD,M,Single-ply
1,Vitaliy Kireev,1985,Russia,74.88,275,285,-290,285,180,192.5,200,,200,275,285,290,290,775,75,Juniors,SBD,M,Single-ply
2,Bartłomiej Szymkowiak,1984,Poland,74.78,270,285,295,295,130,135,-137.5,,135,250,257.5,262.5,262.5,692.5,75,Juniors,SBD,M,Single-ply
3,David Hammers,1983,USA,75,255,-272.5,-275,255,177.5,-187.5,-187.5,,177.5,245,255,260,260,692.5,75,Juniors,SBD,M,Single-ply
4,Tomoyuki Hibino,1984,Japan,74.36,210,-220,220,220,127.5,132.5,135,,135,245,255,-260,255,610,75,Juniors,SBD,M,Single-ply
5,Yuki Sato,1983,Japan,74.57,150,180,200,200,195,-205,205,-217.5,205,150,180,200,200,605,75,Juniors,SBD,M,Single-ply
6,Daniel Young #4,1986,Canada,74.26,240,-250,-250,240,132.5,140,-145,,140,205,220,-230,220,600,75,Juniors,SBD,M,Single-ply
7,Hector David Samayoa,1984,Guatemala,74.11,180,182.5,205,205,-100,140,-150,,140,230,-240,-240,230,575,75,Juniors,SBD,M,Single-ply
8,Hugo Rolando Herrera,1982,Guatemala,67.79,160,162.5,-180,162.5,-100,100,,,100,160,170,180,180,442.5,75,Juniors,SBD,M,Single-ply
1,Alexey Ernandes-Ortega,1984,Russia,81.93,320,340,-350,340,215,225,230,,230,280,295,-305,295,865,82.5,Juniors,SBD,M,Single-ply
2,Dmitriy Zinovyev,1984,Kazakhstan,81.99,265,280,287.5,287.5,195,205,210,,210,272.5,285,290,290,787.5,82.5,Juniors,SBD,M,Single-ply
3,Marcel Lindholm,1982,Finland,82.05,285,295,-300,295,172.5,-180,180,,180,295,302.5,-315,302.5,777.5,82.5,Juniors,SBD,M,Single-ply
4,André Hentschel,1984,Germany,82.04,260,275,-280,275,200,207.5,-212.5,,207.5,240,-255,255,255,737.5,82.5,Juniors,SBD,M,Single-ply
5,David Öhman,1982,Sweden,80.97,230,-240,-245,230,200,-210,-210,,200,230,240,250,250,680,82.5,Juniors,SBD,M,Single-ply
6,Henrik Skov Nielsen,1984,Denmark,82.3,-270,270,285,285,145,-150,150,,150,200,227.5,237.5,237.5,672.5,82.5,Juniors,SBD,M,Single-ply
7,Toru Miyake,1985,Japan,76.54,210,230,237.5,237.5,205,215,-225,,215,170,205,217.5,217.5,670,82.5,Juniors,SBD,M,Single-ply
8,Boyd Lyon,1982,Canada,78.8,245,257.5,-267.5,257.5,155,160,-165,,160,245,-260,-260,245,662.5,82.5,Juniors,SBD,M,Single-ply
9,Yuki Fukushima,1986,Japan,76.88,220,230,-240,230,190,-205,-205,,190,200,210,-220,210,630,82.5,Juniors,SBD,M,Single-ply
10,Ernesto Reyes Samuy,1984,Guatemala,81.69,182.5,195,210,210,-135,135,-145,,135,227.5,245,257.5,257.5,602.5,82.5,Juniors,SBD,M,Single-ply
1,Vadim Zamornikov,1982,Russia,89.95,350,-377.5,-377.5,350,200,215,225,,225,325,360,-373,360,935,90,Juniors,SBD,M,Single-ply
2,Michał Tatarynowicz,1982,Poland,89.25,285,300,-305,300,-180,185,195,,195,280,295,305,305,800,90,Juniors,SBD,M,Single-ply
3,Pawel Krasowski,1985,Poland,89.38,280,290,300,300,175,-185,185,,185,290,-302.5,302.5,302.5,787.5,90,Juniors,SBD,M,Single-ply
4,Francesco Virzi,1983,Germany,89.38,290,302.5,307.5,307.5,-195,200,205,,205,260,272.5,-280,272.5,785,90,Juniors,SBD,M,Single-ply
5,Michael Cambel,1982,USA,89.26,272.5,282.5,-290,282.5,180,190,-195,,190,272.5,287.5,297.5,297.5,770,90,Juniors,SBD,M,Single-ply
6,Tomáš Urban,1985,Czechia,89.06,280,295,-302.5,295,180,-190,190,,190,275,282.5,-290,282.5,767.5,90,Juniors,SBD,M,Single-ply
7,Mikael Mäkinen,1982,Finland,89.62,265,275,290,290,170,182.5,-190,,182.5,250,280,-292.5,280,752.5,90,Juniors,SBD,M,Single-ply
8,Toshiteru Okamura,1983,Japan,83.38,210,235,250,250,-185,205,-210,,205,250,280,292.5,292.5,747.5,90,Juniors,SBD,M,Single-ply
9,Nicolai Dahlin,1985,Denmark,89.68,270,-285,285,285,165,175,180,,180,255,270,282.5,282.5,747.5,90,Juniors,SBD,M,Single-ply
10,Ilya Chichinin,1984,Kazakhstan,88.73,-270,270,-275,270,160,175,182.5,,182.5,250,270,-275,270,722.5,90,Juniors,SBD,M,Single-ply
11,Eban Traeger,1984,Australia,89.51,260,280,-290,280,-160,160,-170,,160,260,280,-292.5,280,720,90,Juniors,SBD,M,Single-ply
12,Stephane Hergott,1982,France,89.83,237.5,247.5,-255,247.5,200,205,-210,,205,-230,230,,230,682.5,90,Juniors,SBD,M,Single-ply
13,Daniel Back,1984,Sweden,86.24,-245,-245,245,245,145,155,-162.5,,155,250,-265,-265,250,650,90,Juniors,SBD,M,Single-ply
1,Andreas Hjelmtveit,1983,Norway,99.63,330,342.5,350,350,195,202.5,207.5,,207.5,320,340,350,350,907.5,100,Juniors,SBD,M,Single-ply
2,Mykhaylo Artsymovych,1982,Ukraine,98.8,350,365,-377.5,365,215,220,-227.5,,220,310,-325,-325,310,895,100,Juniors,SBD,M,Single-ply
3,Jeremy Hartman,1983,USA,98.02,-290,290,310,310,180,200,-215,,200,285,305,325,325,835,100,Juniors,SBD,M,Single-ply
4,Yasuaki Shibata,1983,Japan,99.17,265,285,-290,285,187.5,-195,-195,,187.5,275,-292.5,-292.5,275,747.5,100,Juniors,SBD,M,Single-ply
5,Scott Hastings,1982,Canada,99.78,295,-310,-310,295,202.5,-210,-210,,202.5,240,-260,-260,240,737.5,100,Juniors,SBD,M,Single-ply
6,Leander Jacobs,1982,South Africa,94.34,250,-275,275,275,180,200,-207.5,,200,240,250,260,260,735,100,Juniors,SBD,M,Single-ply
7,Magnus Önerud,1986,Sweden,97.07,-270,270,-272.5,270,175,-182.5,-182.5,,175,270,280,-292.5,280,725,100,Juniors,SBD,M,Single-ply
DD,Arsen Abdulkarimov,1982,Russia,94.33,360,375,-385,375,225,-235,235,,235,310,312.5,322.5,322.5,,100,Juniors,SBD,M,Single-ply
1,Marat Chirkov,1984,Russia,109.45,350,370,-377.5,370,-225,225,235,,235,345,347.5,-357.5,347.5,952.5,110,Juniors,SBD,M,Single-ply
2,Sergey Sosnovskiy,1983,Russia,109.55,365,385,-390.5,385,225,-235,-235,,225,-340,342.5,-352.5,342.5,952.5,110,Juniors,SBD,M,Single-ply
3,John Brown #5,1982,USA,109.24,335,350,-357.5,350,-220,222.5,240,,240,-325,325,-362.5,325,915,110,Juniors,SBD,M,Single-ply
4,Riku Rapelo,1983,Finland,109.25,320,-330,-330,320,215,-225,235,,235,270,285,300,300,855,110,Juniors,SBD,M,Single-ply
5,Andreas Reiz,1984,Germany,105.63,300,320,-335,320,190,200,-207.5,,200,290,300,-307.5,300,820,110,Juniors,SBD,M,Single-ply
6,John McDonald,1983,Canada,108.89,260,272.5,-280,272.5,-210,210,220,,220,230,255,262.5,262.5,755,110,Juniors,SBD,M,Single-ply
1,Aleksey Pankov,1983,Russia,123.4,340,360,380,380,220,227.5,232.5,,232.5,345,365,-387.5,365,977.5,125,Juniors,SBD,M,Single-ply
2,Anton Kibirev,1982,Russia,121.64,360,380,390,390,230,-245,245,,245,320,340,-350,340,975,125,Juniors,SBD,M,Single-ply
3,Michael Tuchscherer,1985,USA,120.27,-330,-330,340,340,-245,245,260,,260,282.5,312.5,-322.5,312.5,912.5,125,Juniors,SBD,M,Single-ply
4,Sardor Tuychiyev,1984,Uzbekistan,115.52,300,315,322.5,322.5,170,185,190,,190,310,-322.5,332.5,332.5,845,125,Juniors,SBD,M,Single-ply
5,Jaco Claasens Gert,1984,South Africa,121.42,300,-340,-340,300,210,230,-240,,230,290,310,-320,310,840,125,Juniors,SBD,M,Single-ply
6,Tomas Sundin,1982,Sweden,119.86,-300,300,-340,300,210,220,230,,230,-270,-270,290,290,820,125,Juniors,SBD,M,Single-ply
7,Jason Byrne #1,1984,Canada,117.68,287.5,300,-310,300,202.5,215,222.5,,222.5,282.5,295,-300,295,817.5,125,Juniors,SBD,M,Single-ply
8,Gregory Young,1982,Canada,121.85,-310,310,-320,310,205,212.5,217.5,,217.5,255,-272.5,-272.5,255,782.5,125,Juniors,SBD,M,Single-ply
9,Masaharu Indo,1984,Japan,124.39,270,295,310,310,205,222.5,-232.5,,222.5,-220,220,-267.5,220,752.5,125,Juniors,SBD,M,Single-ply
DQ,Joe Harrison Ube Alvaro,1982,Ecuador,118.42,-355,-355,-355,,,,,,,,,,,,125,Juniors,SBD,M,Single-ply
1,Alexander Klyushev,1983,Russia,133.05,365,380,392.5,392.5,225,-235,235,,235,360,-372.5,372.5,372.5,1000,125+,Juniors,SBD,M,Single-ply
2,Jewgenij Kondraschow,1983,Germany,137.57,340,362.5,-370,362.5,250,257.5,267.5,,267.5,310,332.5,-360,332.5,962.5,125+,Juniors,SBD,M,Single-ply
3,Josh Chovanec,1983,USA,130.17,347.5,-360,-360,347.5,245,255,265,,265,287.5,302.5,,302.5,915,125+,Juniors,SBD,M,Single-ply
4,Sigfús Þorgeir Fossdal,1983,Iceland,132.51,275,300,-310,300,230,-232.5,-240,,230,275,-295,-305,275,805,125+,Juniors,SBD,M,Single-ply
5,Ronald Urias Marquez,1982,El Salvador,153.04,305,-335,-350,305,-230,245,-265,,245,250,-275,-275,250,800,125+,Juniors,SBD,M,Single-ply
6,Ryan Fowler,1982,Canada,129.6,260,267.5,-372.5,267.5,200,210,215,,215,242.5,255,-267.5,255,737.5,125+,Juniors,SBD,M,Single-ply
